%!PS-Adobe-3.0 EPSF-3.0
%%DocumentNeededResources: font Helvetica
%%+ font Helvetica-Bold
%%+ font Helvetica-Oblique
%%+ font Helvetica-BoldOblique
%%+ font Symbol
%%Title: R Graphics Output
%%Creator: R Software
%%Pages: (atend)
%%BoundingBox: 0 0 504 432
%%EndComments
%%BeginProlog
/bp  { gs sRGB gs } def
% begin .ps.prolog
/gs  { gsave } bind def
/gr  { grestore } bind def
/ep  { showpage gr gr } bind def
/m   { moveto } bind def
/l  { rlineto } bind def
/np  { newpath } bind def
/cp  { closepath } bind def
/f   { fill } bind def
/o   { stroke } bind def
/c   { newpath 0 360 arc } bind def
/r   { 4 2 roll moveto 1 copy 3 -1 roll exch 0 exch rlineto 0 rlineto -1 mul 0 exch rlineto closepath } bind def
/p1  { stroke } bind def
/p2  { gsave bg fill grestore newpath } bind def
/p3  { gsave bg fill grestore stroke } bind def
/p6  { gsave bg eofill grestore newpath } bind def
/p7  { gsave bg eofill grestore stroke } bind def
/t   { 5 -2 roll moveto gsave rotate
       1 index stringwidth pop
       mul neg 0 rmoveto show grestore } bind def
/ta  { 4 -2 roll moveto gsave rotate show } bind def
/tb  { 2 -1 roll 0 rmoveto show } bind def
/cl  { grestore gsave newpath 3 index 3 index moveto 1 index
       4 -1 roll lineto  exch 1 index lineto lineto
       closepath clip newpath } bind def
/rgb { setrgbcolor } bind def
/s   { scalefont setfont } bind def
% end   .ps.prolog
/sRGB { [ /CIEBasedABC
          << /DecodeLMN
               [ { dup 0.03928 le
                        {12.92321 div}
                        {0.055 add 1.055 div 2.4 exp }
                     ifelse
                 } bind dup dup
               ]
             /MatrixLMN [0.412457 0.212673 0.019334
                         0.357576 0.715152 0.119192
                         0.180437 0.072175 0.950301]
             /WhitePoint [0.9505 1.0 1.0890]
           >>
         ] setcolorspace } bind def
/srgb { setcolor } bind def
%%IncludeResource: font Helvetica
/Helvetica findfont
dup length dict begin
  {1 index /FID ne {def} {pop pop} ifelse} forall
  /Encoding ISOLatin1Encoding def
  currentdict
  end
/Font1 exch definefont pop
%%IncludeResource: font Helvetica-Bold
/Helvetica-Bold findfont
dup length dict begin
  {1 index /FID ne {def} {pop pop} ifelse} forall
  /Encoding ISOLatin1Encoding def
  currentdict
  end
/Font2 exch definefont pop
%%IncludeResource: font Helvetica-Oblique
/Helvetica-Oblique findfont
dup length dict begin
  {1 index /FID ne {def} {pop pop} ifelse} forall
  /Encoding ISOLatin1Encoding def
  currentdict
  end
/Font3 exch definefont pop
%%IncludeResource: font Helvetica-BoldOblique
/Helvetica-BoldOblique findfont
dup length dict begin
  {1 index /FID ne {def} {pop pop} ifelse} forall
  /Encoding ISOLatin1Encoding def
  currentdict
  end
/Font4 exch definefont pop
%%IncludeResource: font Symbol
/Symbol findfont
dup length dict begin
  {1 index /FID ne {def} {pop pop} ifelse} forall
  currentdict
  end
/Font5 exch definefont pop
%%EndProlog
%%Page: 1 1
bp
59.04 73.44 473.76 372.96 cl
/bg { 0.7451 0.7451 0.7451 srgb } def
170.40 -1632695662.56 28.80 3265391467.33 r p2
208.80 -1632695662.56 28.80 3265391467.33 r p2
247.20 -1632695662.56 28.80 3265391467.33 r p2
285.60 -1632695662.56 28.80 3265391467.33 r p2
324.00 -1632695662.56 28.80 3265391467.33 r p2
0 0 1 srgb
1.50 setlinewidth
[] 0 setdash
1 setlinecap
1 setlinejoin
10.00 setmiterlimit
np
74.40 181.76 m
0.19 0 l
0.19 -5.78 l
0.20 -5.59 l
0.19 -4.96 l
0.19 -4.03 l
0.19 0 l
0.19 -3.00 l
0.20 -2.09 l
0.19 -1.36 l
0.19 0 l
0.19 -0.83 l
0.19 -0.49 l
0.20 -0.26 l
0.19 -0.10 l
0.19 0 l
0.19 0 l
0.19 0.07 l
0.20 0.11 l
0.19 0.15 l
0.19 0 l
0.19 0.18 l
0.19 0.19 l
0.20 0.21 l
0.19 0.23 l
0.19 0 l
0.19 0.24 l
0.19 0.24 l
0.20 0.26 l
0.19 0.26 l
0.19 0 l
0.19 0.27 l
0.19 0.27 l
0.20 0.28 l
0.19 0.29 l
0.19 0 l
0.19 0.29 l
0.19 0.30 l
0.20 0.30 l
0.19 0.31 l
0.19 0 l
0.19 0.31 l
0.19 0.31 l
0.20 0.32 l
0.19 0.32 l
0.19 0 l
0.19 0.33 l
0.19 0.33 l
0.20 0.34 l
0.19 0.33 l
0.19 0 l
0.19 0.34 l
0.19 0.35 l
0.20 0.35 l
0.19 0.35 l
0.19 0 l
0.19 0.36 l
0.19 0.36 l
0.20 0.36 l
0.19 0.36 l
0.19 0 l
0.19 0.37 l
0.19 0.38 l
0.20 0.37 l
0.19 0.38 l
0.19 0 l
0.19 0.39 l
0.19 0.38 l
0.20 0.39 l
0.19 0.40 l
0.19 0 l
0.19 0.39 l
0.19 0.40 l
0.20 0.41 l
0.19 0.41 l
0.19 0 l
0.19 0.41 l
0.19 0.41 l
0.20 0.42 l
0.19 0.42 l
0.19 0 l
0.19 0.42 l
0.19 0.43 l
0.20 0.43 l
0.19 0.44 l
0.19 0 l
0.19 0.44 l
0.19 0.44 l
0.20 0.44 l
0.19 0.45 l
0.19 0 l
0.19 0.45 l
0.19 0.46 l
0.20 0.46 l
0.19 0.46 l
0.19 0 l
0.19 0.47 l
0.19 0.47 l
0.20 0.47 l
0.19 0.48 l
93.60 176.68 lineto
0.19 0.48 l
0.19 0.48 l
0.20 0.49 l
0.19 0.49 l
0.19 0 l
0.19 0.49 l
0.19 0.50 l
0.20 0.50 l
0.19 0.51 l
0.19 0 l
0.19 0.51 l
0.19 0.51 l
0.20 0.52 l
0.19 0.52 l
0.19 0 l
0.19 0.53 l
0.19 0.52 l
0.20 0.54 l
0.19 0.53 l
0.19 0 l
0.19 0.55 l
0.19 0.54 l
0.20 0.55 l
0.19 0.56 l
0.19 0 l
0.19 0.55 l
0.19 0.57 l
0.20 0.56 l
0.19 0.58 l
0.19 0 l
0.19 0.57 l
0.19 0.58 l
0.20 0.59 l
0.19 0.59 l
0.19 0 l
0.19 0.59 l
0.19 0.60 l
0.20 0.61 l
0.19 0.61 l
0.19 0 l
0.19 0.61 l
0.19 0.62 l
0.20 0.62 l
0.19 0.62 l
0.19 0 l
0.19 0.63 l
0.19 0.64 l
0.20 0.64 l
0.19 0.65 l
0.19 0 l
0.19 0.64 l
0.19 0.66 l
0.20 0.66 l
0.19 0.66 l
0.19 0 l
0.19 0.67 l
0.19 0.68 l
0.20 0.68 l
0.19 0.68 l
0.19 0 l
0.19 0.69 l
0.19 0.70 l
0.20 0.70 l
0.19 0.71 l
0.19 0 l
0.19 0.71 l
0.19 0.72 l
0.20 0.73 l
0.19 0.73 l
0.19 0 l
0.19 0.74 l
0.19 0.75 l
0.20 0.75 l
0.19 0.76 l
0.19 0 l
0.19 0.77 l
0.19 0.77 l
0.20 0.78 l
0.19 0.79 l
0.19 0 l
0.19 0.80 l
0.19 0.81 l
0.20 0.82 l
0.19 0.82 l
0.19 0 l
0.19 0.84 l
0.19 0.85 l
0.20 0.86 l
0.19 0.87 l
0.19 0 l
0.19 0.88 l
0.19 0.89 l
0.20 0.91 l
0.19 0.91 l
0.19 0 l
0.19 0.93 l
0.19 0.93 l
0.20 0.96 l
0.19 0.97 l
112.80 230.21 lineto
0.19 0.98 l
0.19 0.96 l
0.20 0.97 l
0.19 0.97 l
0.19 0 l
0.19 0.97 l
0.19 0.99 l
0.20 0.99 l
0.19 1.01 l
0.19 0 l
0.19 1.01 l
0.19 1.03 l
0.20 1.04 l
0.19 1.05 l
0.19 0 l
0.19 1.06 l
0.19 1.07 l
0.20 1.08 l
0.19 1.09 l
0.19 0 l
0.19 1.10 l
0.19 1.12 l
0.20 1.12 l
0.19 1.13 l
0.19 0 l
0.19 1.14 l
0.19 1.15 l
0.20 1.16 l
0.19 1.16 l
0.19 0 l
0.19 1.18 l
0.19 1.18 l
0.20 1.19 l
0.19 1.19 l
0.19 0 l
0.19 1.20 l
0.19 1.20 l
0.20 1.21 l
0.19 1.22 l
0.19 0 l
0.19 1.21 l
0.19 1.22 l
0.20 1.22 l
0.19 1.22 l
0.19 0 l
0.19 1.22 l
0.19 1.22 l
0.20 1.22 l
0.19 1.22 l
0.19 0 l
0.19 1.21 l
0.19 1.21 l
0.20 1.21 l
0.19 1.20 l
0.19 0 l
0.19 1.19 l
0.19 1.19 l
0.20 1.17 l
0.19 1.17 l
0.19 0 l
0.19 1.16 l
0.19 1.15 l
0.20 1.14 l
0.19 1.12 l
0.19 0 l
0.19 1.12 l
0.19 1.10 l
0.20 1.08 l
0.19 1.07 l
0.19 0 l
0.19 1.06 l
0.19 1.04 l
0.20 1.03 l
0.19 1.01 l
0.19 0 l
0.19 0.99 l
0.19 0.97 l
0.20 0.96 l
0.19 0.94 l
0.19 0 l
0.19 0.92 l
0.19 0.90 l
0.20 0.89 l
0.19 0.86 l
0.19 0 l
0.19 0.85 l
0.19 0.83 l
0.20 0.81 l
0.19 0.79 l
0.19 0 l
0.19 0.77 l
0.19 0.76 l
0.20 0.73 l
0.19 0.72 l
0.19 0 l
0.19 0.70 l
0.19 0.67 l
0.20 0.66 l
0.19 0.65 l
132.00 313.88 lineto
0.19 0.62 l
0.19 0.61 l
0.20 0.59 l
0.19 0.57 l
0.19 0 l
0.19 0.56 l
0.19 0.54 l
0.20 0.53 l
0.19 0.51 l
0.19 0 l
0.19 0.49 l
0.19 0.48 l
0.20 0.47 l
0.19 0.45 l
0.19 0 l
0.19 0.44 l
0.19 0.43 l
0.20 0.42 l
0.19 0.40 l
0.19 0 l
0.19 0.40 l
0.19 0.38 l
0.20 0.38 l
0.19 0.37 l
0.19 0 l
0.19 0.35 l
0.19 0.36 l
0.20 0.34 l
0.19 0.34 l
0.19 0 l
0.19 0.33 l
0.19 0.33 l
0.20 0.32 l
0.19 0.32 l
0.19 0 l
0.19 0.32 l
0.19 0.31 l
0.20 0.31 l
0.19 0.32 l
0.19 0 l
0.19 0.31 l
0.19 0.31 l
0.20 0.31 l
0.19 0.31 l
0.19 0 l
0.19 0.31 l
0.19 0.31 l
0.20 0.32 l
0.19 0.32 l
0.19 0 l
0.19 0.32 l
0.19 0.32 l
0.20 0.33 l
0.19 0.33 l
0.19 0 l
0.19 0.34 l
0.19 0.34 l
0.20 0.35 l
0.19 0.35 l
0.19 0 l
0.19 0.35 l
0.19 0.36 l
0.20 0.37 l
0.19 0.37 l
0.19 0 l
0.19 0.38 l
0.19 0.38 l
0.20 0.39 l
0.19 0.39 l
0.19 0 l
0.19 0.40 l
0.19 0.41 l
0.20 0.41 l
0.19 0.42 l
0.19 0 l
0.19 0.43 l
0.19 0.43 l
0.20 0.44 l
0.19 0.45 l
0.19 0 l
0.19 0.45 l
0.19 0.45 l
0.20 0.47 l
0.19 0.46 l
0.19 0 l
0.19 0.48 l
0.19 0.48 l
0.20 0.49 l
0.19 0.49 l
0.19 0 l
0.19 0.49 l
0.19 0.50 l
0.20 0.51 l
0.19 0.51 l
0.19 0 l
0.19 0.51 l
0.19 0.51 l
0.20 0.52 l
0.19 0.52 l
151.20 346.87 lineto
0.19 0.52 l
0.19 0.52 l
0.20 0.53 l
0.19 0.52 l
0.19 0 l
0.19 0.52 l
0.19 0.52 l
0.20 0.51 l
0.19 0.51 l
0.19 0 l
0.19 0.51 l
0.19 0.50 l
0.20 0.50 l
0.19 0.49 l
0.19 0 l
0.19 0.48 l
0.19 0.47 l
0.20 0.46 l
0.19 0.46 l
0.19 0 l
0.19 0.44 l
0.19 0.43 l
0.20 0.42 l
0.19 0.41 l
0.19 0 l
0.19 0.39 l
0.19 0.38 l
0.20 0.37 l
0.19 0.35 l
0.19 0 l
0.19 0.34 l
0.19 0.33 l
0.20 0.30 l
0.19 0.30 l
0.19 0 l
0.19 0.27 l
0.19 0.27 l
0.20 0.24 l
0.19 0.23 l
0.19 0 l
0.19 0.22 l
0.19 0.19 l
0.20 0.19 l
0.19 0.16 l
0.19 0 l
0.19 0.15 l
0.19 0.13 l
0.20 0.12 l
0.19 0.10 l
0.19 0 l
0.19 0.08 l
0.19 0.07 l
0.20 0.05 l
0.19 0.03 l
0.19 0 l
0.19 0.02 l
0.19 -0.01 l
0.20 -0.03 l
0.19 -0.05 l
0.19 0 l
0.19 -0.07 l
0.19 -0.09 l
0.20 -0.12 l
0.19 -0.15 l
0.19 0 l
0.19 -0.18 l
0.19 -0.21 l
0.20 -0.24 l
0.19 -0.28 l
0.19 0 l
0.19 -0.32 l
0.19 -0.36 l
0.20 -0.41 l
0.19 -0.47 l
0.19 0 l
0.19 -0.52 l
0.19 -0.59 l
0.20 -0.65 l
0.19 -0.74 l
0.19 0 l
0.19 -0.82 l
0.19 -0.91 l
0.20 -1.02 l
0.19 -1.14 l
0.19 0 l
0.19 -1.27 l
0.19 -1.42 l
0.20 -1.57 l
0.19 -1.76 l
0.19 0 l
0.19 -1.94 l
0.19 -2.16 l
0.20 -2.39 l
0.19 -2.62 l
0.19 0 l
0.19 -2.88 l
0.19 -3.12 l
0.20 -3.35 l
0.19 -3.54 l
170.40 324.47 lineto
0.19 -3.68 l
0.19 -3.72 l
0.20 -4.02 l
0.19 -4.46 l
0.19 0 l
0.19 -4.80 l
0.19 -5.09 l
0.20 -5.31 l
0.19 -5.30 l
0.19 0 l
0.19 -5.17 l
0.19 -5.04 l
0.20 -4.92 l
0.19 -4.68 l
0.19 0 l
0.19 -4.32 l
0.19 -4.10 l
0.20 -3.94 l
0.19 -3.77 l
0.19 0 l
0.19 -3.61 l
0.19 -3.46 l
0.20 -3.31 l
0.19 -3.19 l
0.19 0 l
0.19 -3.04 l
0.19 -2.91 l
0.20 -2.77 l
0.19 -2.67 l
0.19 0 l
0.19 -2.55 l
0.19 -2.45 l
0.20 -2.36 l
0.19 -2.28 l
0.19 0 l
0.19 -2.20 l
0.19 -2.13 l
0.20 -2.06 l
0.19 -2.00 l
0.19 0 l
0.19 -1.93 l
0.19 -1.89 l
0.20 -1.82 l
0.19 -1.78 l
0.19 0 l
0.19 -1.72 l
0.19 -1.67 l
0.20 -1.62 l
0.19 -1.57 l
0.19 0 l
0.19 -1.51 l
0.19 -1.45 l
0.20 -1.39 l
0.19 -1.32 l
0.19 0 l
0.19 -1.24 l
0.19 -1.15 l
0.20 -1.04 l
0.19 -0.92 l
0.19 0 l
0.19 -0.76 l
0.19 -0.58 l
0.20 -0.38 l
0.19 -0.12 l
0.19 0 l
0.19 0.17 l
0.19 0.48 l
0.20 0.82 l
0.19 1.14 l
0.19 0 l
0.19 1.45 l
0.19 1.70 l
0.20 1.87 l
0.19 1.96 l
0.19 0 l
0.19 1.96 l
0.19 1.88 l
0.20 1.73 l
0.19 1.53 l
0.19 0 l
0.19 1.31 l
0.19 1.08 l
0.20 0.86 l
0.19 0.65 l
0.19 0 l
0.19 0.46 l
0.19 0.30 l
0.20 0.16 l
0.19 0.04 l
0.19 0 l
0.19 -0.07 l
0.19 -0.15 l
0.20 -0.23 l
0.19 -0.29 l
0.19 0 l
0.19 -0.35 l
0.19 -0.39 l
0.20 -0.42 l
0.19 -0.47 l
189.60 202.48 lineto
0.19 -0.49 l
0.19 -0.51 l
0.20 -0.54 l
0.19 -0.56 l
0.19 0 l
0.19 -0.57 l
0.19 -0.59 l
0.20 -0.60 l
0.19 -0.61 l
0.19 0 l
0.19 -0.62 l
0.19 -0.63 l
0.20 -0.63 l
0.19 -0.64 l
0.19 0 l
0.19 -0.63 l
0.19 -0.65 l
0.20 -0.64 l
0.19 -0.64 l
0.19 0 l
0.19 -0.63 l
0.19 -0.63 l
0.20 -0.62 l
0.19 -0.61 l
0.19 0 l
0.19 -0.60 l
0.19 -0.58 l
0.20 -0.57 l
0.19 -0.53 l
0.19 0 l
0.19 -0.50 l
0.19 -0.47 l
0.20 -0.42 l
0.19 -0.37 l
0.19 0 l
0.19 -0.30 l
0.19 -0.22 l
0.20 -0.14 l
0.19 -0.03 l
0.19 0 l
0.19 0.08 l
0.19 0.22 l
0.20 0.35 l
0.19 0.50 l
0.19 0 l
0.19 0.64 l
0.19 0.79 l
0.20 0.92 l
0.19 1.03 l
0.19 0 l
0.19 1.12 l
0.19 1.19 l
0.20 1.22 l
0.19 1.22 l
0.19 0 l
0.19 1.23 l
0.19 1.20 l
0.20 1.18 l
0.19 1.17 l
0.19 0 l
0.19 1.18 l
0.19 1.20 l
0.20 1.26 l
0.19 1.33 l
0.19 0 l
0.19 1.43 l
0.19 1.53 l
0.20 1.61 l
0.19 1.67 l
0.19 0 l
0.19 1.69 l
0.19 1.66 l
0.20 1.59 l
0.19 1.48 l
0.19 0 l
0.19 1.34 l
0.19 1.19 l
0.20 1.03 l
0.19 0.80 l
0.19 0 l
0.19 0.53 l
0.19 0.18 l
0.20 -0.22 l
0.19 -0.61 l
0.19 0 l
0.19 -0.95 l
0.19 -1.22 l
0.20 -1.41 l
0.19 -1.53 l
0.19 0 l
0.19 -1.58 l
0.19 -1.59 l
0.20 -1.55 l
0.19 -1.48 l
0.19 0 l
0.19 -1.38 l
0.19 -1.26 l
0.20 -1.10 l
0.19 -0.94 l
208.80 205.65 lineto
0.19 -0.76 l
0.19 -0.57 l
0.20 -0.38 l
0.19 -0.21 l
0.19 0 l
0.19 -0.05 l
0.19 0.10 l
0.20 0.24 l
0.19 0.41 l
0.19 0 l
0.19 0.65 l
0.19 0.98 l
0.20 1.40 l
0.19 1.87 l
0.19 0 l
0.19 2.35 l
0.19 2.72 l
0.20 2.93 l
0.19 2.93 l
0.19 0 l
0.19 2.72 l
0.19 2.33 l
0.20 1.84 l
0.19 1.32 l
0.19 0 l
0.19 0.84 l
0.19 0.43 l
0.20 0.10 l
0.19 -0.18 l
0.19 0 l
0.19 -0.41 l
0.19 -0.62 l
0.20 -0.78 l
0.19 -0.91 l
0.19 0 l
0.19 -1.00 l
0.19 -1.06 l
0.20 -1.09 l
0.19 -1.10 l
0.19 0 l
0.19 -1.09 l
0.19 -1.06 l
0.20 -1.01 l
0.19 -0.96 l
0.19 0 l
0.19 -0.91 l
0.19 -0.84 l
0.20 -0.77 l
0.19 -0.72 l
0.19 0 l
0.19 -0.65 l
0.19 -0.59 l
0.20 -0.53 l
0.19 -0.49 l
0.19 0 l
0.19 -0.44 l
0.19 -0.40 l
0.20 -0.36 l
0.19 -0.34 l
0.19 0 l
0.19 -0.32 l
0.19 -0.29 l
0.20 -0.29 l
0.19 -0.27 l
0.19 0 l
0.19 -0.26 l
0.19 -0.27 l
0.20 -0.26 l
0.19 -0.26 l
0.19 0 l
0.19 -0.26 l
0.19 -0.26 l
0.20 -0.26 l
0.19 -0.27 l
0.19 0 l
0.19 -0.26 l
0.19 -0.27 l
0.20 -0.26 l
0.19 -0.27 l
0.19 0 l
0.19 -0.26 l
0.19 -0.26 l
0.20 -0.26 l
0.19 -0.24 l
0.19 0 l
0.19 -0.24 l
0.19 -0.23 l
0.20 -0.21 l
0.19 -0.21 l
0.19 0 l
0.19 -0.18 l
0.19 -0.16 l
0.20 -0.14 l
0.19 -0.11 l
0.19 0 l
0.19 -0.08 l
0.19 -0.05 l
0.20 -0.01 l
0.19 0.03 l
228.00 204.59 lineto
0.19 0.08 l
0.19 0.13 l
0.20 0.18 l
0.19 0.23 l
0.19 0 l
0.19 0.28 l
0.19 0.33 l
0.20 0.37 l
0.19 0.40 l
0.19 0 l
0.19 0.42 l
0.19 0.41 l
0.20 0.40 l
0.19 0.37 l
0.19 0 l
0.19 0.31 l
0.19 0.25 l
0.20 0.19 l
0.19 0.11 l
0.19 0 l
0.19 0.04 l
0.19 -0.02 l
0.20 -0.08 l
0.19 -0.13 l
0.19 0 l
0.19 -0.18 l
0.19 -0.20 l
0.20 -0.23 l
0.19 -0.24 l
0.19 0 l
0.19 -0.26 l
0.19 -0.26 l
0.20 -0.25 l
0.19 -0.26 l
0.19 0 l
0.19 -0.24 l
0.19 -0.23 l
0.20 -0.23 l
0.19 -0.21 l
0.19 0 l
0.19 -0.20 l
0.19 -0.18 l
0.20 -0.17 l
0.19 -0.16 l
0.19 0 l
0.19 -0.14 l
0.19 -0.14 l
0.20 -0.12 l
0.19 -0.12 l
0.19 0 l
0.19 -0.10 l
0.19 -0.10 l
0.20 -0.10 l
0.19 -0.09 l
0.19 0 l
0.19 -0.10 l
0.19 -0.11 l
0.20 -0.14 l
0.19 -0.17 l
0.19 0 l
0.19 -0.22 l
0.19 -0.29 l
0.20 -0.36 l
0.19 -0.46 l
0.19 0 l
0.19 -0.54 l
0.19 -0.63 l
0.20 -0.72 l
0.19 -0.79 l
0.19 0 l
0.19 -0.85 l
0.19 -0.90 l
0.20 -0.94 l
0.19 -0.96 l
0.19 0 l
0.19 -0.96 l
0.19 -0.97 l
0.20 -0.97 l
0.19 -0.95 l
0.19 0 l
0.19 -0.93 l
0.19 -0.91 l
0.20 -0.90 l
0.19 -0.88 l
0.19 0 l
0.19 -0.86 l
0.19 -0.84 l
0.20 -0.83 l
0.19 -0.82 l
0.19 0 l
0.19 -0.82 l
0.19 -0.80 l
0.20 -0.79 l
0.19 -0.79 l
0.19 0 l
0.19 -0.77 l
0.19 -0.76 l
0.20 -0.74 l
0.19 -0.71 l
247.20 179.27 lineto
0.19 -0.68 l
0.19 -0.63 l
0.20 -0.55 l
0.19 -0.46 l
0.19 0 l
0.19 -0.31 l
0.19 -0.10 l
0.20 0.17 l
0.19 0.51 l
0.19 0 l
0.19 0.91 l
0.19 1.36 l
0.20 1.77 l
0.19 2.13 l
0.19 0 l
0.19 2.36 l
0.19 2.43 l
0.20 2.35 l
0.19 2.12 l
0.19 0 l
0.19 1.80 l
0.19 1.42 l
0.20 1.03 l
0.19 0.67 l
0.19 0 l
0.19 0.33 l
0.19 0.04 l
0.20 -0.20 l
0.19 -0.38 l
0.19 0 l
0.19 -0.54 l
0.19 -0.65 l
0.20 -0.73 l
0.19 -0.79 l
0.19 0 l
0.19 -0.82 l
0.19 -0.84 l
0.20 -0.85 l
0.19 -0.84 l
0.19 0 l
0.19 -0.84 l
0.19 -0.82 l
0.20 -0.81 l
0.19 -0.79 l
0.19 0 l
0.19 -0.78 l
0.19 -0.75 l
0.20 -0.74 l
0.19 -0.71 l
0.19 0 l
0.19 -0.70 l
0.19 -0.68 l
0.20 -0.65 l
0.19 -0.64 l
0.19 0 l
0.19 -0.61 l
0.19 -0.59 l
0.20 -0.55 l
0.19 -0.53 l
0.19 0 l
0.19 -0.49 l
0.19 -0.45 l
0.20 -0.41 l
0.19 -0.35 l
0.19 0 l
0.19 -0.30 l
0.19 -0.24 l
0.20 -0.17 l
0.19 -0.10 l
0.19 0 l
0.19 -0.02 l
0.19 0.06 l
0.20 0.14 l
0.19 0.23 l
0.19 0 l
0.19 0.30 l
0.19 0.38 l
0.20 0.44 l
0.19 0.49 l
0.19 0 l
0.19 0.54 l
0.19 0.56 l
0.20 0.58 l
0.19 0.57 l
0.19 0 l
0.19 0.55 l
0.19 0.51 l
0.20 0.47 l
0.19 0.42 l
0.19 0 l
0.19 0.36 l
0.19 0.29 l
0.20 0.23 l
0.19 0.16 l
0.19 0 l
0.19 0.10 l
0.19 0.03 l
0.20 -0.01 l
0.19 -0.07 l
currentpoint o m
266.40 184.91 lineto
0.19 -0.11 l
0.19 -0.16 l
0.20 -0.19 l
0.19 -0.22 l
0.19 0 l
0.19 -0.24 l
0.19 -0.27 l
0.20 -0.28 l
0.19 -0.30 l
0.19 0 l
0.19 -0.31 l
0.19 -0.32 l
0.20 -0.33 l
0.19 -0.33 l
0.19 0 l
0.19 -0.33 l
0.19 -0.33 l
0.20 -0.33 l
0.19 -0.33 l
0.19 0 l
0.19 -0.32 l
0.19 -0.32 l
0.20 -0.30 l
0.19 -0.29 l
0.19 0 l
0.19 -0.29 l
0.19 -0.26 l
0.20 -0.25 l
0.19 -0.22 l
0.19 0 l
0.19 -0.20 l
0.19 -0.18 l
0.20 -0.14 l
0.19 -0.10 l
0.19 0 l
0.19 -0.07 l
0.19 -0.02 l
0.20 0.04 l
0.19 0.09 l
0.19 0 l
0.19 0.15 l
0.19 0.23 l
0.20 0.30 l
0.19 0.37 l
0.19 0 l
0.19 0.45 l
0.19 0.52 l
0.20 0.59 l
0.19 0.63 l
0.19 0 l
0.19 0.66 l
0.19 0.68 l
0.20 0.67 l
0.19 0.65 l
0.19 0 l
0.19 0.60 l
0.19 0.54 l
0.20 0.48 l
0.19 0.41 l
0.19 0 l
0.19 0.34 l
0.19 0.27 l
0.20 0.21 l
0.19 0.15 l
0.19 0 l
0.19 0.09 l
0.19 0.05 l
0.20 0 l
0.19 -0.05 l
0.19 0 l
0.19 -0.12 l
0.19 -0.19 l
0.20 -0.28 l
0.19 -0.37 l
0.19 0 l
0.19 -0.47 l
0.19 -0.58 l
0.20 -0.70 l
0.19 -0.80 l
0.19 0 l
0.19 -0.90 l
0.19 -1.00 l
0.20 -1.08 l
0.19 -1.16 l
0.19 0 l
0.19 -1.21 l
0.19 -1.26 l
0.20 -1.30 l
0.19 -1.32 l
0.19 0 l
0.19 -1.33 l
0.19 -1.35 l
0.20 -1.34 l
0.19 -1.33 l
0.19 0 l
0.19 -1.31 l
0.19 -1.30 l
0.20 -1.27 l
0.19 -1.25 l
285.60 163.47 lineto
0.19 -1.21 l
0.19 -1.17 l
0.20 -1.12 l
0.19 -1.07 l
0.19 0 l
0.19 -0.99 l
0.19 -0.91 l
0.20 -0.78 l
0.19 -0.61 l
0.19 0 l
0.19 -0.39 l
0.19 -0.10 l
0.20 0.28 l
0.19 0.72 l
0.19 0 l
0.19 1.24 l
0.19 1.78 l
0.20 2.31 l
0.19 2.76 l
0.19 0 l
0.19 3.07 l
0.19 3.19 l
0.20 3.12 l
0.19 2.87 l
0.19 0 l
0.19 2.48 l
0.19 2.02 l
0.20 1.53 l
0.19 1.07 l
0.19 0 l
0.19 0.67 l
0.19 0.31 l
0.20 0.04 l
0.19 -0.18 l
0.19 0 l
0.19 -0.33 l
0.19 -0.45 l
0.20 -0.52 l
0.19 -0.57 l
0.19 0 l
0.19 -0.59 l
0.19 -0.61 l
0.20 -0.60 l
0.19 -0.60 l
0.19 0 l
0.19 -0.59 l
0.19 -0.57 l
0.20 -0.57 l
0.19 -0.56 l
0.19 0 l
0.19 -0.54 l
0.19 -0.54 l
0.20 -0.53 l
0.19 -0.52 l
0.19 0 l
0.19 -0.52 l
0.19 -0.51 l
0.20 -0.50 l
0.19 -0.49 l
0.19 0 l
0.19 -0.48 l
0.19 -0.47 l
0.20 -0.45 l
0.19 -0.44 l
0.19 0 l
0.19 -0.41 l
0.19 -0.38 l
0.20 -0.35 l
0.19 -0.32 l
0.19 0 l
0.19 -0.27 l
0.19 -0.24 l
0.20 -0.18 l
0.19 -0.14 l
0.19 0 l
0.19 -0.08 l
0.19 -0.03 l
0.20 0.03 l
0.19 0.08 l
0.19 0 l
0.19 0.13 l
0.19 0.18 l
0.20 0.23 l
0.19 0.26 l
0.19 0 l
0.19 0.30 l
0.19 0.31 l
0.20 0.33 l
0.19 0.33 l
0.19 0 l
0.19 0.33 l
0.19 0.32 l
0.20 0.30 l
0.19 0.28 l
0.19 0 l
0.19 0.25 l
0.19 0.21 l
0.20 0.19 l
0.19 0.14 l
304.80 173.65 lineto
0.19 0.11 l
0.19 0.07 l
0.20 0.04 l
0.19 0 l
0.19 0 l
0.19 -0.03 l
0.19 -0.06 l
0.20 -0.09 l
0.19 -0.11 l
0.19 0 l
0.19 -0.14 l
0.19 -0.16 l
0.20 -0.17 l
0.19 -0.20 l
0.19 0 l
0.19 -0.20 l
0.19 -0.22 l
0.20 -0.23 l
0.19 -0.24 l
0.19 0 l
0.19 -0.24 l
0.19 -0.25 l
0.20 -0.26 l
0.19 -0.25 l
0.19 0 l
0.19 -0.26 l
0.19 -0.26 l
0.20 -0.26 l
0.19 -0.25 l
0.19 0 l
0.19 -0.26 l
0.19 -0.25 l
0.20 -0.24 l
0.19 -0.25 l
0.19 0 l
0.19 -0.23 l
0.19 -0.23 l
0.20 -0.23 l
0.19 -0.22 l
0.19 0 l
0.19 -0.21 l
0.19 -0.20 l
0.20 -0.20 l
0.19 -0.19 l
0.19 0 l
0.19 -0.18 l
0.19 -0.17 l
0.20 -0.16 l
0.19 -0.16 l
0.19 0 l
0.19 -0.14 l
0.19 -0.14 l
0.20 -0.12 l
0.19 -0.12 l
0.19 0 l
0.19 -0.11 l
0.19 -0.10 l
0.20 -0.09 l
0.19 -0.08 l
0.19 0 l
0.19 -0.06 l
0.19 -0.05 l
0.20 -0.03 l
0.19 0 l
0.19 0 l
0.19 0.05 l
0.19 0.10 l
0.20 0.17 l
0.19 0.28 l
0.19 0 l
0.19 0.40 l
0.19 0.56 l
0.20 0.72 l
0.19 0.93 l
0.19 0 l
0.19 1.12 l
0.19 1.31 l
0.20 1.47 l
0.19 1.59 l
0.19 0 l
0.19 1.65 l
0.19 1.63 l
0.20 1.56 l
0.19 1.41 l
0.19 0 l
0.19 1.20 l
0.19 0.97 l
0.20 0.70 l
0.19 0.44 l
0.19 0 l
0.19 0.18 l
0.19 -0.05 l
0.20 -0.26 l
0.19 -0.43 l
0.19 0 l
0.19 -0.57 l
0.19 -0.69 l
0.20 -0.75 l
0.19 -0.80 l
324.00 180.46 lineto
0.19 -0.82 l
0.19 -0.80 l
0.20 -0.76 l
0.19 -0.68 l
0.19 0 l
0.19 -0.59 l
0.19 -0.46 l
0.20 -0.33 l
0.19 -0.17 l
0.19 0 l
0.19 -0.01 l
0.19 0.12 l
0.20 0.24 l
0.19 0.31 l
0.19 0 l
0.19 0.34 l
0.19 0.31 l
0.20 0.23 l
0.19 0.12 l
0.19 0 l
0.19 -0.03 l
0.19 -0.18 l
0.20 -0.35 l
0.19 -0.51 l
0.19 0 l
0.19 -0.64 l
0.19 -0.77 l
0.20 -0.88 l
0.19 -0.96 l
0.19 0 l
0.19 -1.02 l
0.19 -1.06 l
0.20 -1.09 l
0.19 -1.11 l
0.19 0 l
0.19 -1.10 l
0.19 -1.08 l
0.20 -1.07 l
0.19 -1.03 l
0.19 0 l
0.19 -0.99 l
0.19 -0.94 l
0.20 -0.90 l
0.19 -0.84 l
0.19 0 l
0.19 -0.78 l
0.19 -0.72 l
0.20 -0.66 l
0.19 -0.59 l
0.19 0 l
0.19 -0.53 l
0.19 -0.46 l
0.20 -0.40 l
0.19 -0.33 l
0.19 0 l
0.19 -0.27 l
0.19 -0.21 l
0.20 -0.14 l
0.19 -0.08 l
0.19 0 l
0.19 -0.03 l
0.19 0.04 l
0.20 0.08 l
0.19 0.14 l
0.19 0 l
0.19 0.19 l
0.19 0.24 l
0.20 0.29 l
0.19 0.32 l
0.19 0 l
0.19 0.36 l
0.19 0.39 l
0.20 0.43 l
0.19 0.44 l
0.19 0 l
0.19 0.46 l
0.19 0.47 l
0.20 0.47 l
0.19 0.46 l
0.19 0 l
0.19 0.46 l
0.19 0.43 l
0.20 0.42 l
0.19 0.38 l
0.19 0 l
0.19 0.36 l
0.19 0.32 l
0.20 0.28 l
0.19 0.25 l
0.19 0 l
0.19 0.21 l
0.19 0.18 l
0.20 0.15 l
0.19 0.13 l
0.19 0 l
0.19 0.10 l
0.19 0.08 l
0.20 0.07 l
0.19 0.07 l
343.20 164.43 lineto
0.19 0.05 l
0.19 0.06 l
0.20 0.05 l
0.19 0.07 l
0.19 0 l
0.19 0.06 l
0.19 0.08 l
0.20 0.09 l
0.19 0.09 l
0.19 0 l
0.19 0.11 l
0.19 0.12 l
0.20 0.13 l
0.19 0.14 l
0.19 0 l
0.19 0.16 l
0.19 0.16 l
0.20 0.18 l
0.19 0.19 l
0.19 0 l
0.19 0.21 l
0.19 0.22 l
0.20 0.24 l
0.19 0.25 l
0.19 0 l
0.19 0.28 l
0.19 0.30 l
0.20 0.33 l
0.19 0.35 l
0.19 0 l
0.19 0.38 l
0.19 0.41 l
0.20 0.42 l
0.19 0.45 l
0.19 0 l
0.19 0.47 l
0.19 0.49 l
0.20 0.49 l
0.19 0.49 l
0.19 0 l
0.19 0.50 l
0.19 0.49 l
0.20 0.49 l
0.19 0.47 l
0.19 0 l
0.19 0.45 l
0.19 0.45 l
0.20 0.43 l
0.19 0.43 l
0.19 0 l
0.19 0.42 l
0.19 0.42 l
0.20 0.43 l
0.19 0.44 l
0.19 0 l
0.19 0.46 l
0.19 0.46 l
0.20 0.46 l
0.19 0.44 l
0.19 0 l
0.19 0.40 l
0.19 0.33 l
0.20 0.23 l
0.19 0.10 l
0.19 0 l
0.19 -0.06 l
0.19 -0.24 l
0.20 -0.41 l
0.19 -0.60 l
0.19 0 l
0.19 -0.78 l
0.19 -0.94 l
0.20 -1.08 l
0.19 -1.21 l
0.19 0 l
0.19 -1.32 l
0.19 -1.41 l
0.20 -1.48 l
0.19 -1.53 l
0.19 0 l
0.19 -1.57 l
0.19 -1.60 l
0.20 -1.61 l
0.19 -1.61 l
0.19 0 l
0.19 -1.62 l
0.19 -1.60 l
0.20 -1.59 l
0.19 -1.57 l
0.19 0 l
0.19 -1.54 l
0.19 -1.52 l
0.20 -1.50 l
0.19 -1.46 l
0.19 0 l
0.19 -1.43 l
0.19 -1.41 l
0.20 -1.37 l
0.19 -1.34 l
362.40 144.85 lineto
0.19 -1.30 l
0.19 -1.28 l
0.20 -1.24 l
0.19 -1.22 l
0.19 0 l
0.19 -1.18 l
0.19 -1.15 l
0.20 -1.12 l
0.19 -1.10 l
0.19 0 l
0.19 -1.07 l
0.19 -1.04 l
0.20 -1.01 l
0.19 -0.99 l
0.19 0 l
0.19 -0.96 l
0.19 -0.94 l
0.20 -0.92 l
0.19 -0.89 l
0.19 0 l
0.19 -0.87 l
0.19 -0.85 l
0.20 -0.82 l
0.19 -0.81 l
0.19 0 l
0.19 -0.79 l
0.19 -0.76 l
0.20 -0.75 l
0.19 -0.74 l
0.19 0 l
0.19 -0.71 l
0.19 -0.70 l
0.20 -0.68 l
0.19 -0.66 l
0.19 0 l
0.19 -0.65 l
0.19 -0.63 l
0.20 -0.62 l
0.19 -0.60 l
0.19 0 l
0.19 -0.59 l
0.19 -0.58 l
0.20 -0.56 l
0.19 -0.56 l
0.19 0 l
0.19 -0.53 l
0.19 -0.53 l
0.20 -0.52 l
0.19 -0.50 l
0.19 0 l
0.19 -0.49 l
0.19 -0.49 l
0.20 -0.47 l
0.19 -0.46 l
0.19 0 l
0.19 -0.45 l
0.19 -0.45 l
0.20 -0.43 l
0.19 -0.42 l
0.19 0 l
0.19 -0.42 l
0.19 -0.41 l
0.20 -0.40 l
0.19 -0.39 l
0.19 0 l
0.19 -0.38 l
0.19 -0.38 l
0.20 -0.36 l
0.19 -0.37 l
0.19 0 l
0.19 -0.35 l
0.19 -0.35 l
0.20 -0.34 l
0.19 -0.33 l
0.19 0 l
0.19 -0.33 l
0.19 -0.32 l
0.20 -0.32 l
0.19 -0.31 l
0.19 0 l
0.19 -0.30 l
0.19 -0.30 l
0.20 -0.29 l
0.19 -0.29 l
0.19 0 l
0.19 -0.28 l
0.19 -0.28 l
0.20 -0.27 l
0.19 -0.27 l
0.19 0 l
0.19 -0.26 l
0.19 -0.26 l
0.20 -0.26 l
0.19 -0.25 l
0.19 0 l
0.19 -0.24 l
0.19 -0.25 l
0.20 -0.23 l
0.19 -0.24 l
381.60 97.74 lineto
0.19 -0.23 l
0.19 -0.23 l
0.20 -0.22 l
0.19 -0.22 l
0.19 0 l
0.19 -0.21 l
0.19 -0.22 l
0.20 -0.21 l
0.19 -0.20 l
0.19 0 l
0.19 -0.21 l
0.19 -0.20 l
0.20 -0.19 l
0.19 -0.20 l
0.19 0 l
0.19 -0.19 l
0.19 -0.19 l
0.20 -0.18 l
0.19 -0.19 l
0.19 0 l
0.19 -0.18 l
0.19 -0.17 l
0.20 -0.18 l
0.19 -0.17 l
0.19 0 l
0.19 -0.17 l
0.19 -0.17 l
0.20 -0.17 l
0.19 -0.16 l
0.19 0 l
0.19 -0.16 l
0.19 -0.16 l
0.20 -0.16 l
0.19 -0.15 l
0.19 0 l
0.19 -0.16 l
0.19 -0.15 l
0.20 -0.15 l
0.19 -0.14 l
0.19 0 l
0.19 -0.15 l
0.19 -0.14 l
0.20 -0.14 l
0.19 -0.14 l
0.19 0 l
0.19 -0.14 l
0.19 -0.14 l
0.20 -0.13 l
0.19 -0.13 l
0.19 0 l
0.19 -0.14 l
0.19 -0.13 l
0.20 -0.12 l
0.19 -0.13 l
0.19 0 l
0.19 -0.12 l
0.19 -0.13 l
0.20 -0.12 l
0.19 -0.12 l
0.19 0 l
0.19 -0.12 l
0.19 -0.11 l
0.20 -0.12 l
0.19 -0.11 l
0.19 0 l
0.19 -0.12 l
0.19 -0.11 l
0.20 -0.11 l
0.19 -0.11 l
0.19 0 l
0.19 -0.10 l
0.19 -0.11 l
0.20 -0.10 l
0.19 -0.11 l
0.19 0 l
0.19 -0.10 l
0.19 -0.10 l
0.20 -0.10 l
0.19 -0.10 l
0.19 0 l
0.19 -0.09 l
0.19 -0.10 l
0.20 -0.09 l
0.19 -0.10 l
0.19 0 l
0.19 -0.09 l
0.19 -0.09 l
0.20 -0.09 l
0.19 -0.09 l
0.19 0 l
0.19 -0.08 l
0.19 -0.09 l
0.20 -0.08 l
0.19 -0.09 l
0.19 0 l
0.19 -0.08 l
0.19 -0.08 l
0.20 -0.08 l
0.19 -0.08 l
400.80 86.60 lineto
0.19 -0.08 l
0.19 -0.07 l
0.20 -0.08 l
0.19 -0.07 l
0.19 0 l
0.19 -0.07 l
0.19 -0.08 l
0.20 -0.07 l
0.19 -0.07 l
0.19 0 l
0.19 -0.06 l
0.19 -0.07 l
0.20 -0.07 l
0.19 -0.06 l
0.19 0 l
0.19 -0.07 l
0.19 -0.06 l
0.20 -0.06 l
0.19 -0.06 l
0.19 0 l
0.19 -0.06 l
0.19 -0.06 l
0.20 -0.06 l
0.19 -0.06 l
0.19 0 l
0.19 -0.06 l
0.19 -0.05 l
0.20 -0.05 l
0.19 -0.06 l
0.19 0 l
0.19 -0.05 l
0.19 -0.05 l
0.20 -0.05 l
0.19 -0.05 l
0.19 0 l
0.19 -0.05 l
0.19 -0.05 l
0.20 -0.04 l
0.19 -0.05 l
0.19 0 l
0.19 -0.04 l
0.19 -0.05 l
0.20 -0.03 l
0.19 0.56 l
0.19 0 l
0.19 11.49 l
0.19 38.89 l
0.20 14.65 l
0.19 -0.15 l
0.19 0 l
0.19 -0.18 l
0.19 -0.17 l
0.20 -0.15 l
0.19 -0.14 l
0.19 0 l
0.19 -0.15 l
0.19 -0.14 l
0.20 -0.15 l
0.19 -0.15 l
0.19 0 l
0.19 -0.15 l
0.19 -0.15 l
0.20 -0.16 l
0.19 -0.15 l
0.19 0 l
0.19 -0.15 l
0.19 -0.13 l
0.20 -0.13 l
0.19 -0.10 l
0.19 0 l
0.19 -0.07 l
0.19 -0.04 l
0.20 0.01 l
0.19 0.04 l
0.19 0 l
0.19 0.09 l
0.19 0.14 l
0.20 0.17 l
0.19 0.21 l
0.19 0 l
0.19 0.24 l
0.19 0.26 l
0.20 0.28 l
0.19 0.28 l
0.19 0 l
0.19 0.27 l
0.19 0.27 l
0.20 0.25 l
0.19 0.23 l
0.19 0 l
0.19 0.20 l
0.19 0.17 l
0.20 0.14 l
0.19 0.11 l
0.19 0 l
0.19 0.08 l
0.19 0.05 l
0.20 0.02 l
0.19 0 l
420.00 151.02 lineto
0.19 -0.03 l
0.19 -0.05 l
0.20 -0.07 l
0.19 -0.08 l
0.19 0 l
0.19 -0.10 l
0.19 -0.10 l
0.20 -0.11 l
0.19 -0.12 l
0.19 0 l
0.19 -0.12 l
0.19 -0.11 l
0.20 -0.12 l
0.19 -0.11 l
0.19 0 l
0.19 -0.11 l
0.19 -0.10 l
0.20 -0.09 l
0.19 -0.09 l
0.19 0 l
0.19 -0.08 l
0.19 -0.07 l
0.20 -0.06 l
0.19 -0.05 l
0.19 0 l
0.19 -0.05 l
0.19 -0.04 l
0.20 -0.03 l
0.19 -0.03 l
0.19 0 l
0.19 -0.02 l
0.19 -0.02 l
0.20 -0.01 l
0.19 0 l
0.19 0 l
0.19 -0.01 l
0.19 0.01 l
0.20 0 l
0.19 0 l
0.19 0 l
0.19 0.01 l
0.19 0.01 l
0.20 0.02 l
0.19 0.01 l
0.19 0 l
0.19 0.01 l
0.19 0.02 l
0.20 0.02 l
0.19 0.01 l
0.19 0 l
0.19 0.02 l
0.19 0.02 l
0.20 0.02 l
0.19 0.03 l
0.19 0 l
0.19 0.02 l
0.19 0.03 l
0.20 0.03 l
0.19 0.04 l
0.19 0 l
0.19 0.04 l
0.19 0.04 l
0.20 0.05 l
0.19 0.05 l
0.19 0 l
0.19 0.06 l
0.19 0.07 l
0.20 0.07 l
0.19 0.08 l
0.19 0 l
0.19 0.08 l
0.19 0.09 l
0.20 0.09 l
0.19 0.10 l
0.19 0 l
0.19 0.10 l
0.19 0.10 l
0.20 0.10 l
0.19 0.11 l
0.19 0 l
0.19 0.10 l
0.19 0.11 l
0.20 0.10 l
0.19 0.10 l
0.19 0 l
0.19 0.09 l
0.19 0.10 l
0.20 0.08 l
0.19 0.09 l
0.19 0 l
0.19 0.08 l
0.19 0.07 l
0.20 0.06 l
0.19 0.06 l
0.19 0 l
0.19 0.05 l
0.19 0.03 l
0.20 0.04 l
0.19 0.02 l
439.20 151.78 lineto
0.19 0.01 l
0.19 0 l
0.20 0 l
0.19 -0.01 l
0.19 0 l
0.19 -0.02 l
0.19 -0.02 l
0.20 -0.02 l
0.19 -0.02 l
0.19 0 l
0.19 -0.01 l
0.19 -0.01 l
0.20 0 l
0.19 0.01 l
0.19 0 l
0.19 0.01 l
0.19 0.02 l
0.20 0.03 l
0.19 0.02 l
0.19 0 l
0.19 0 l
0.19 -0.02 l
0.20 -0.09 l
0.19 -0.17 l
0.19 0 l
0.19 -0.28 l
0.19 -0.45 l
0.20 -0.65 l
0.19 -0.89 l
0.19 0 l
0.19 -1.15 l
0.19 -1.40 l
0.20 -1.63 l
0.19 -1.83 l
0.19 0 l
0.19 -1.93 l
0.19 -1.98 l
0.20 -1.93 l
0.19 -1.80 l
0.19 0 l
0.19 -1.59 l
0.19 -1.34 l
0.20 -1.06 l
0.19 -0.81 l
0.19 0 l
0.19 -0.57 l
0.19 -0.38 l
0.20 -0.22 l
0.19 -0.10 l
0.19 0 l
0.19 0 l
0.19 0.06 l
0.20 0.11 l
0.19 0.14 l
0.19 0 l
0.19 0.18 l
0.19 0.19 l
0.20 0.21 l
0.19 0.21 l
0.19 0 l
0.19 0.22 l
0.19 0.23 l
0.20 0.22 l
0.19 0.23 l
0.19 0 l
0.19 0.23 l
0.19 0.23 l
0.20 0.23 l
0.19 0.23 l
0.19 0 l
0.19 0.23 l
0.19 0.23 l
0.20 0.22 l
0.19 0.23 l
0.19 0 l
0.19 0.23 l
0.19 0.23 l
0.20 0.23 l
0.19 0.24 l
0.19 0 l
0.19 0.23 l
0.19 0.24 l
0.20 0.24 l
0.19 0.26 l
0.19 0 l
0.19 0.26 l
0.19 0.28 l
0.20 0.30 l
0.19 0.34 l
0.19 0 l
0.19 0.40 l
0.19 0.47 l
0.20 0.57 l
0.19 0.71 l
0.19 0 l
0.19 0.85 l
0.19 0.91 l
0.20 0.92 l
0.19 0.87 l
currentpoint o m
458.40 142.11 lineto
0 0.82 l
o
0.00 0.00 504.00 432.00 cl
0 0 0 srgb
0.75 setlinewidth
[] 0 setdash
1 setlinecap
1 setlinejoin
10.00 setmiterlimit
np
74.40 73.44 m
384.00 0 l
o
np
74.40 73.44 m
0 -7.20 l
o
np
170.40 73.44 m
0 -7.20 l
o
np
266.40 73.44 m
0 -7.20 l
o
np
362.40 73.44 m
0 -7.20 l
o
np
458.40 73.44 m
0 -7.20 l
o
/Font1 findfont 12 s
74.40 47.52 (4) .5 0 t
170.40 47.52 (5) .5 0 t
266.40 47.52 (6) .5 0 t
362.40 47.52 (7) .5 0 t
458.40 47.52 (8) .5 0 t
np
59.04 152.73 m
0 163.27 l
o
np
59.04 152.73 m
-7.20 0 l
o
np
59.04 234.37 m
-7.20 0 l
o
np
59.04 316.00 m
-7.20 0 l
o
41.76 152.73 (0.05) .5 90 t
41.76 234.37 (0.10) .5 90 t
41.76 316.00 (0.15) .5 90 t
np
59.04 73.44 m
414.72 0 l
0 299.52 l
-414.72 0 l
0 -299.52 l
o
0.00 0.00 504.00 432.00 cl
/Font1 findfont 12 s
0 0 0 srgb
266.40 18.72 (x [m]) .5 0 t
12.96 223.20 (h [m]) .5 90 t
59.04 73.44 473.76 372.96 cl
/bg { 0 0 0 srgb } def
170.40 354.10 4.05 c p2
184.80 206.34 4.05 c p2
204.00 179.86 4.05 c p2
223.20 193.10 4.05 c p2
242.40 191.92 4.05 c p2
261.60 184.30 4.05 c p2
280.80 190.45 4.05 c p2
300.00 177.95 4.05 c p2
319.20 223.85 4.05 c p2
338.40 161.77 4.05 c p2
352.80 131.45 4.05 c p2
84.00 307.69 4.05 c p2
112.80 341.09 4.05 c p2
141.60 348.72 4.05 c p2
383.52 113.95 4.05 c p2
429.60 160.67 4.05 c p2
0 0 1 srgb
0.75 setlinewidth
[] 0 setdash
1 setlinecap
1 setlinejoin
10.00 setmiterlimit
170.40 320.79 4.05 c p1
184.80 194.85 4.05 c p1
204.00 218.74 4.05 c p1
223.20 208.00 4.05 c p1
242.40 195.31 4.05 c p1
261.60 178.31 4.05 c p1
280.80 185.26 4.05 c p1
300.00 169.48 4.05 c p1
319.20 169.90 4.05 c p1
338.40 159.14 4.05 c p1
352.80 176.08 4.05 c p1
84.00 160.65 4.05 c p1
112.80 231.19 4.05 c p1
141.60 330.29 4.05 c p1
383.52 95.79 4.05 c p1
429.60 149.18 4.05 c p1
0 0 0 srgb
324.00 332.33 140.22 -51.84 r p1
np
336.96 315.05 m
25.92 0 l
o
0 0 1 srgb
np
336.96 297.77 m
25.92 0 l
o
/Font1 findfont 14 s
0 0 0 srgb
375.84 310.02 (Exper) 0 ta
0.210 (imental) tb gr
375.84 292.74 (Sim) 0 ta
-0.140 (ulated) tb gr
ep
%%Trailer
%%Pages: 1
%%EOF
