%!PS-Adobe-3.0 EPSF-3.0
%%DocumentNeededResources: font Helvetica
%%+ font Helvetica-Bold
%%+ font Helvetica-Oblique
%%+ font Helvetica-BoldOblique
%%+ font Symbol
%%Title: R Graphics Output
%%Creator: R Software
%%Pages: (atend)
%%BoundingBox: 0 0 504 504
%%EndComments
%%BeginProlog
/bp  { gs sRGB gs } def
% begin .ps.prolog
/gs  { gsave } bind def
/gr  { grestore } bind def
/ep  { showpage gr gr } bind def
/m   { moveto } bind def
/l  { rlineto } bind def
/np  { newpath } bind def
/cp  { closepath } bind def
/f   { fill } bind def
/o   { stroke } bind def
/c   { newpath 0 360 arc } bind def
/r   { 4 2 roll moveto 1 copy 3 -1 roll exch 0 exch rlineto 0 rlineto -1 mul 0 exch rlineto closepath } bind def
/p1  { stroke } bind def
/p2  { gsave bg fill grestore newpath } bind def
/p3  { gsave bg fill grestore stroke } bind def
/p6  { gsave bg eofill grestore newpath } bind def
/p7  { gsave bg eofill grestore stroke } bind def
/t   { 5 -2 roll moveto gsave rotate
       1 index stringwidth pop
       mul neg 0 rmoveto show grestore } bind def
/ta  { 4 -2 roll moveto gsave rotate show } bind def
/tb  { 2 -1 roll 0 rmoveto show } bind def
/cl  { grestore gsave newpath 3 index 3 index moveto 1 index
       4 -1 roll lineto  exch 1 index lineto lineto
       closepath clip newpath } bind def
/rgb { setrgbcolor } bind def
/s   { scalefont setfont } bind def
% end   .ps.prolog
/sRGB { [ /CIEBasedABC
          << /DecodeLMN
               [ { dup 0.03928 le
                        {12.92321 div}
                        {0.055 add 1.055 div 2.4 exp }
                     ifelse
                 } bind dup dup
               ]
             /MatrixLMN [0.412457 0.212673 0.019334
                         0.357576 0.715152 0.119192
                         0.180437 0.072175 0.950301]
             /WhitePoint [0.9505 1.0 1.0890]
           >>
         ] setcolorspace } bind def
/srgb { setcolor } bind def
%%IncludeResource: font Helvetica
/Helvetica findfont
dup length dict begin
  {1 index /FID ne {def} {pop pop} ifelse} forall
  /Encoding ISOLatin1Encoding def
  currentdict
  end
/Font1 exch definefont pop
%%IncludeResource: font Helvetica-Bold
/Helvetica-Bold findfont
dup length dict begin
  {1 index /FID ne {def} {pop pop} ifelse} forall
  /Encoding ISOLatin1Encoding def
  currentdict
  end
/Font2 exch definefont pop
%%IncludeResource: font Helvetica-Oblique
/Helvetica-Oblique findfont
dup length dict begin
  {1 index /FID ne {def} {pop pop} ifelse} forall
  /Encoding ISOLatin1Encoding def
  currentdict
  end
/Font3 exch definefont pop
%%IncludeResource: font Helvetica-BoldOblique
/Helvetica-BoldOblique findfont
dup length dict begin
  {1 index /FID ne {def} {pop pop} ifelse} forall
  /Encoding ISOLatin1Encoding def
  currentdict
  end
/Font4 exch definefont pop
%%IncludeResource: font Symbol
/Symbol findfont
dup length dict begin
  {1 index /FID ne {def} {pop pop} ifelse} forall
  currentdict
  end
/Font5 exch definefont pop
%%EndProlog
%%Page: 1 1
bp
59.04 73.44 473.76 444.96 cl
0 0 0 srgb
0.75 setlinewidth
[] 0 setdash
1 setlinecap
1 setlinejoin
10.00 setmiterlimit
np
74.40 431.20 m
3.84 0 l
3.84 0 l
3.84 0 l
3.84 0 l
3.84 0 l
3.84 0 l
3.84 0 l
3.84 0 l
3.84 0 l
3.84 0 l
3.84 0 l
3.84 0 l
3.84 0 l
3.84 0 l
3.84 0 l
3.84 0 l
3.84 0 l
3.84 0 l
3.84 0 l
3.84 0 l
3.84 0 l
3.84 -2.54 l
3.84 -10.73 l
3.84 -10.61 l
3.84 -10.48 l
3.84 -10.35 l
3.84 -10.23 l
3.84 -10.10 l
3.84 -9.96 l
3.84 -9.85 l
3.84 -9.71 l
3.84 -9.58 l
3.84 -9.46 l
3.84 -9.33 l
3.84 -9.20 l
3.84 -9.08 l
3.84 -8.94 l
3.84 -8.82 l
3.84 -8.69 l
3.84 -8.56 l
3.84 -8.44 l
3.84 -8.30 l
3.84 -8.18 l
3.84 -4.46 l
3.84 0 l
3.84 0 l
3.84 0 l
3.84 0 l
3.84 0 l
3.84 0 l
3.84 0 l
3.84 0 l
3.84 0 l
3.84 0 l
3.84 0 l
3.84 0 l
3.84 0 l
3.84 0 l
3.84 0 l
3.84 0 l
3.84 0 l
3.84 0 l
3.84 0 l
3.84 0 l
3.84 0 l
3.84 0 l
3.84 0 l
3.84 0 l
3.84 0 l
3.84 0 l
3.84 0 l
3.84 0 l
3.84 0 l
3.84 0 l
3.84 0 l
3.84 0 l
3.84 -138.40 l
3.84 0 l
3.84 0 l
3.84 0 l
3.84 0 l
3.84 0 l
3.84 0 l
3.84 0 l
3.84 0 l
3.84 0 l
3.84 0 l
3.84 0 l
3.84 0 l
3.84 0 l
3.84 0 l
3.84 0 l
3.84 0 l
3.84 0 l
3.84 0 l
3.84 0 l
3.84 0 l
3.84 0 l
3.84 0 l
458.40 87.20 lineto
o
0.00 0.00 504.00 504.00 cl
0 0 0 srgb
0.75 setlinewidth
[] 0 setdash
1 setlinecap
1 setlinejoin
10.00 setmiterlimit
np
74.40 73.44 m
384.00 0 l
o
np
74.40 73.44 m
0 -7.20 l
o
np
151.20 73.44 m
0 -7.20 l
o
np
228.00 73.44 m
0 -7.20 l
o
np
304.80 73.44 m
0 -7.20 l
o
np
381.60 73.44 m
0 -7.20 l
o
np
458.40 73.44 m
0 -7.20 l
o
/Font1 findfont 12 s
74.40 47.52 (0) .5 0 t
151.20 47.52 (20) .5 0 t
228.00 47.52 (40) .5 0 t
304.80 47.52 (60) .5 0 t
381.60 47.52 (80) .5 0 t
458.40 47.52 (100) .5 0 t
np
59.04 87.20 m
0 344.00 l
o
np
59.04 87.20 m
-7.20 0 l
o
np
59.04 144.53 m
-7.20 0 l
o
np
59.04 201.87 m
-7.20 0 l
o
np
59.04 259.20 m
-7.20 0 l
o
np
59.04 316.53 m
-7.20 0 l
o
np
59.04 373.87 m
-7.20 0 l
o
np
59.04 431.20 m
-7.20 0 l
o
41.76 87.20 (1.0) .5 90 t
41.76 144.53 (1.5) .5 90 t
41.76 201.87 (2.0) .5 90 t
41.76 259.20 (2.5) .5 90 t
41.76 316.53 (3.0) .5 90 t
41.76 373.87 (3.5) .5 90 t
41.76 431.20 (4.0) .5 90 t
np
59.04 73.44 m
414.72 0 l
0 371.52 l
-414.72 0 l
0 -371.52 l
o
0.00 0.00 504.00 504.00 cl
/Font1 findfont 12 s
0 0 0 srgb
266.40 18.72 (x [m]) .5 0 t
12.96 259.20 (Depth [m]) .5 90 t
59.04 73.44 473.76 444.96 cl
1 0 0 srgb
0.75 setlinewidth
[] 0 setdash
1 setlinecap
1 setlinejoin
10.00 setmiterlimit
np
74.40 431.20 m
3.84 0 l
3.84 0 l
3.84 0 l
3.84 0 l
3.84 0 l
3.84 0 l
3.84 0 l
3.84 0 l
3.84 0 l
3.84 0 l
3.84 0 l
3.84 0 l
3.84 0 l
3.84 -0.01 l
3.84 -0.02 l
3.84 -0.11 l
3.84 -0.36 l
3.84 -0.91 l
3.84 -1.87 l
3.84 -3.16 l
3.84 -4.58 l
3.84 -5.87 l
3.84 -6.92 l
3.84 -7.70 l
3.84 -8.24 l
3.84 -8.61 l
3.84 -8.85 l
3.84 -8.99 l
3.84 -9.06 l
3.84 -9.09 l
3.84 -9.08 l
3.84 -9.05 l
3.84 -8.99 l
3.84 -8.92 l
3.84 -8.84 l
3.84 -8.74 l
3.84 -8.64 l
3.84 -8.52 l
3.84 -8.37 l
3.84 -8.20 l
3.84 -7.97 l
3.84 -7.63 l
3.84 -7.05 l
3.84 -5.99 l
3.84 -4.07 l
3.84 -1.57 l
3.84 -0.04 l
3.84 0.18 l
3.84 0.08 l
3.84 0.05 l
3.84 0.02 l
3.84 0.01 l
3.84 0 l
3.84 -0.01 l
3.84 0 l
3.84 -0.01 l
3.84 0 l
3.84 -0.01 l
3.84 -0.01 l
3.84 -0.01 l
3.84 -0.01 l
3.84 -0.01 l
3.84 -0.01 l
3.84 -0.01 l
3.84 -0.01 l
3.84 -0.01 l
3.84 -0.01 l
3.84 -0.01 l
3.84 -0.02 l
3.84 -0.02 l
3.84 -0.02 l
3.84 -0.02 l
3.84 -0.02 l
3.84 -0.03 l
3.84 -0.34 l
3.84 -18.14 l
3.84 -114.64 l
3.84 -4.93 l
3.84 -0.01 l
3.84 0 l
3.84 0 l
3.84 0 l
3.84 0 l
3.84 0 l
3.84 0 l
3.84 0 l
3.84 0 l
3.84 0 l
3.84 0 l
3.84 0 l
3.84 0 l
3.84 0 l
3.84 0 l
3.84 0 l
3.84 0 l
3.84 0 l
3.84 0 l
3.84 0 l
3.84 0 l
458.40 87.20 lineto
o
ep
%%Trailer
%%Pages: 1
%%EOF
