Time SurfaceVolume BoundaryInflow BoundaryInflowAccum BoundaryOutflow BoundaryOutflowAccum 
0.000000e+00 0.000000e+00 0.000000e+00 0.000000e+00 0.000000e+00 0.000000e+00 
2.000000e+00 4.100004e-01 4.571698e-01 4.661358e-01 0.000000e+00 0.000000e+00 
3.000000e+00 9.587654e-01 6.505837e-01 1.021968e+00 0.000000e+00 0.000000e+00 
4.000000e+00 1.703096e+00 8.438468e-01 1.775917e+00 0.000000e+00 0.000000e+00 
5.000000e+00 2.641117e+00 1.036258e+00 2.722875e+00 0.000000e+00 0.000000e+00 
6.000000e+00 3.771713e+00 1.228109e+00 3.861784e+00 0.000000e+00 0.000000e+00 
7.000000e+00 5.094207e+00 1.419568e+00 5.192011e+00 0.000000e+00 0.000000e+00 
8.000000e+00 6.318765e+00 1.610744e+00 6.713181e+00 0.000000e+00 0.000000e+00 
9.000000e+00 5.364997e+00 1.801710e+00 8.425055e+00 0.000000e+00 0.000000e+00 
1.000000e+01 4.635504e+00 1.992519e+00 1.032747e+01 0.000000e+00 0.000000e+00 
1.100000e+01 4.313352e+00 2.032181e+00 1.235181e+01 0.000000e+00 0.000000e+00 
1.200000e+01 4.017744e+00 2.065018e+00 1.436945e+01 0.000000e+00 0.000000e+00 
1.300000e+01 3.969477e+00 2.098839e+00 1.648137e+01 0.000000e+00 0.000000e+00 
1.400000e+01 3.947818e+00 2.131691e+00 1.856568e+01 0.000000e+00 0.000000e+00 
1.500000e+01 3.963373e+00 2.165497e+00 2.074432e+01 0.000000e+00 0.000000e+00 
1.600000e+01 3.960604e+00 2.198363e+00 2.289526e+01 0.000000e+00 0.000000e+00 
1.700000e+01 3.956715e+00 2.232156e+00 2.514062e+01 0.000000e+00 0.000000e+00 
1.800000e+01 3.936602e+00 2.265036e+00 2.735821e+01 0.000000e+00 0.000000e+00 
1.900000e+01 3.952241e+00 2.298815e+00 2.967028e+01 0.000000e+00 0.000000e+00 
2.000000e+01 3.933410e+00 2.331708e+00 3.195451e+01 0.000000e+00 0.000000e+00 
2.100000e+01 3.939023e+00 2.365475e+00 3.433330e+01 0.000000e+00 0.000000e+00 
2.200000e+01 3.926769e+00 2.398379e+00 3.668417e+01 0.000000e+00 0.000000e+00 
2.300000e+01 3.942543e+00 2.432135e+00 3.912966e+01 0.000000e+00 0.000000e+00 
2.400000e+01 3.923787e+00 2.465051e+00 4.154718e+01 0.000000e+00 0.000000e+00 
2.500000e+01 3.936137e+00 2.498796e+00 4.405938e+01 0.000000e+00 0.000000e+00 
2.600000e+01 3.918303e+00 2.531722e+00 4.654354e+01 0.000000e+00 0.000000e+00 
2.700000e+01 3.933956e+00 2.565457e+00 4.912245e+01 0.000000e+00 0.000000e+00 
2.800000e+01 3.917925e+00 2.599182e+00 5.173471e+01 0.000000e+00 0.000000e+00 
2.900000e+01 3.929441e+00 2.632118e+00 5.431885e+01 0.000000e+00 0.000000e+00 
3.000000e+01 3.945910e+00 2.665833e+00 5.699784e+01 0.000000e+00 0.000000e+00 
3.100000e+01 3.933603e+00 2.698779e+00 5.964863e+01 0.000000e+00 0.000000e+00 
3.200000e+01 3.941561e+00 2.732486e+00 6.239431e+01 0.000000e+00 0.000000e+00 
3.300000e+01 3.922662e+00 2.765441e+00 6.511175e+01 0.000000e+00 0.000000e+00 
3.400000e+01 3.938584e+00 2.799139e+00 6.792413e+01 0.000000e+00 0.000000e+00 
3.500000e+01 3.932746e+00 2.832103e+00 7.070822e+01 0.000000e+00 0.000000e+00 
3.600000e+01 3.934798e+00 2.865793e+00 7.358730e+01 0.000000e+00 0.000000e+00 
3.700000e+01 3.915926e+00 2.898765e+00 7.643804e+01 0.000000e+00 0.000000e+00 
3.800000e+01 3.931872e+00 2.932447e+00 7.938381e+01 0.000000e+00 0.000000e+00 
3.900000e+01 3.913330e+00 2.965428e+00 8.230120e+01 0.000000e+00 0.000000e+00 
4.000000e+01 3.915447e+00 2.999102e+00 8.531367e+01 0.000000e+00 0.000000e+00 
4.100000e+01 3.909610e+00 3.032090e+00 8.829771e+01 0.000000e+00 0.000000e+00 
4.200000e+01 3.925663e+00 3.065758e+00 9.137688e+01 0.000000e+00 0.000000e+00 
4.300000e+01 3.907163e+00 3.098753e+00 9.442757e+01 0.000000e+00 0.000000e+00 
4.400000e+01 3.915646e+00 3.132414e+00 9.757343e+01 0.000000e+00 0.000000e+00 
4.500000e+01 3.903848e+00 3.165416e+00 1.006908e+02 0.000000e+00 0.000000e+00 
4.600000e+01 3.919867e+00 3.199070e+00 1.039033e+02 0.000000e+00 0.000000e+00 
4.700000e+01 3.901405e+00 3.232079e+00 1.070873e+02 0.000000e+00 0.000000e+00 
4.800000e+01 3.916210e+00 3.265727e+00 1.103666e+02 0.000000e+00 0.000000e+00 
4.900000e+01 3.899059e+00 3.299368e+00 1.136792e+02 0.000000e+00 0.000000e+00 
5.000000e+01 3.916432e+00 3.332384e+00 1.169631e+02 0.000000e+00 0.000000e+00 
5.100000e+01 3.930250e+00 3.366020e+00 1.203424e+02 0.000000e+00 0.000000e+00 
5.200000e+01 3.911778e+00 3.399041e+00 1.236931e+02 0.000000e+00 0.000000e+00 
5.300000e+01 3.927867e+00 3.432672e+00 1.271390e+02 0.000000e+00 0.000000e+00 
5.400000e+01 3.917607e+00 3.465699e+00 1.305563e+02 0.000000e+00 0.000000e+00 
5.500000e+01 3.925185e+00 3.499324e+00 1.340690e+02 0.000000e+00 0.000000e+00 
5.600000e+01 3.906728e+00 3.532358e+00 1.375529e+02 0.000000e+00 0.000000e+00 
5.700000e+01 3.922842e+00 3.565977e+00 1.411323e+02 0.000000e+00 0.000000e+00 
5.800000e+01 3.918835e+00 3.599016e+00 1.446829e+02 0.000000e+00 0.000000e+00 
5.900000e+01 3.920332e+00 3.632630e+00 1.483289e+02 0.000000e+00 0.000000e+00 
6.000000e+01 3.919694e+00 3.665675e+00 1.519462e+02 0.000000e+00 0.000000e+00 
6.100000e+01 3.902681e+00 3.699284e+00 1.556589e+02 0.000000e+00 0.000000e+00 
6.200000e+01 3.920238e+00 3.732334e+00 1.593428e+02 0.000000e+00 0.000000e+00 
6.300000e+01 3.915663e+00 3.765939e+00 1.631223e+02 0.000000e+00 0.000000e+00 
6.400000e+01 3.921176e+00 3.798993e+00 1.668728e+02 0.000000e+00 0.000000e+00 
6.500000e+01 3.904259e+00 3.832594e+00 1.707189e+02 0.000000e+00 0.000000e+00 
6.600000e+01 3.921860e+00 3.865653e+00 1.745361e+02 0.000000e+00 0.000000e+00 
6.700000e+01 3.911153e+00 3.899249e+00 1.784489e+02 0.000000e+00 0.000000e+00 
6.800000e+01 3.922824e+00 3.932313e+00 1.823328e+02 0.000000e+00 0.000000e+00 
6.900000e+01 3.905981e+00 3.965904e+00 1.863123e+02 0.000000e+00 0.000000e+00 
7.000000e+01 3.923621e+00 3.998973e+00 1.902628e+02 0.000000e+00 0.000000e+00 
7.100000e+01 3.906781e+00 4.032560e+00 1.943090e+02 0.000000e+00 0.000000e+00 
7.200000e+01 3.922962e+00 4.066144e+00 1.983884e+02 0.000000e+00 0.000000e+00 
7.300000e+01 3.907815e+00 4.099217e+00 2.024390e+02 0.000000e+00 0.000000e+00 
7.400000e+01 3.920773e+00 4.132796e+00 2.065852e+02 0.000000e+00 0.000000e+00 
7.500000e+01 3.902506e+00 4.165873e+00 2.107024e+02 0.000000e+00 0.000000e+00 
7.600000e+01 3.918720e+00 4.199449e+00 2.149152e+02 0.000000e+00 0.000000e+00 
7.700000e+01 3.909769e+00 4.232530e+00 2.190991e+02 0.000000e+00 0.000000e+00 
7.800000e+01 3.916607e+00 4.266102e+00 2.233786e+02 0.000000e+00 0.000000e+00 
7.900000e+01 3.910837e+00 4.299187e+00 2.276291e+02 0.000000e+00 0.000000e+00 
8.000000e+01 3.894083e+00 4.332756e+00 2.319753e+02 0.000000e+00 0.000000e+00 
8.100000e+01 3.763468e+00 4.366261e+00 2.363242e+02 2.695322e+00 1.622563e+00 
8.200000e+01 3.812831e+00 4.399178e+00 2.406678e+02 3.845034e+00 4.900051e+00 
8.300000e+01 3.862596e+00 4.432407e+00 2.450766e+02 4.754622e+00 9.212528e+00 
8.400000e+01 3.912930e+00 4.466065e+00 2.495690e+02 5.546590e+00 1.442665e+01 
8.500000e+01 3.962398e+00 4.499161e+00 2.540195e+02 6.246273e+00 2.029077e+01 
8.600000e+01 4.012570e+00 4.532720e+00 2.585657e+02 6.900430e+00 2.691643e+01 
8.700000e+01 4.062052e+00 4.565819e+00 2.630829e+02 7.505175e+00 3.407514e+01 
8.800000e+01 4.112226e+00 4.599375e+00 2.676958e+02 8.086648e+00 4.192863e+01 
8.900000e+01 4.161721e+00 4.632478e+00 2.722796e+02 8.635290e+00 5.023664e+01 
9.000000e+01 4.211897e+00 4.666030e+00 2.769592e+02 9.170775e+00 5.920258e+01 
9.100000e+01 4.261404e+00 4.699136e+00 2.816097e+02 9.682090e+00 6.856867e+01 
9.200000e+01 4.311582e+00 4.732686e+00 2.863560e+02 1.018573e+01 7.857060e+01 
9.300000e+01 4.361100e+00 4.765795e+00 2.910731e+02 1.067039e+01 8.893184e+01 
9.400000e+01 4.411279e+00 4.799342e+00 2.958861e+02 1.115068e+01 9.991524e+01 
9.500000e+01 4.461455e+00 4.832886e+00 3.007324e+02 1.162138e+01 1.113760e+02 
9.600000e+01 4.510987e+00 4.865998e+00 3.055495e+02 1.207783e+01 1.231498e+02 
9.700000e+01 4.561166e+00 4.899540e+00 3.104625e+02 1.253285e+01 1.355343e+02 
9.800000e+01 4.610708e+00 4.932655e+00 3.153463e+02 1.297558e+01 1.482075e+02 
9.900000e+01 4.660888e+00 4.966194e+00 3.203259e+02 1.341811e+01 1.614878e+02 
1.000000e+02 4.710440e+00 4.999312e+00 3.252764e+02 1.384983e+01 1.750360e+02 
1.010000e+02 4.711828e+00 5.000000e+00 3.302594e+02 1.397247e+01 1.889249e+02 
1.020000e+02 4.721815e+00 5.000000e+00 3.352594e+02 1.403871e+01 2.029305e+02 
1.030000e+02 4.731815e+00 5.000000e+00 3.402594e+02 1.410555e+01 2.170031e+02 
1.040000e+02 4.741815e+00 5.000000e+00 3.452594e+02 1.417203e+01 2.311423e+02 
1.050000e+02 4.751815e+00 5.000000e+00 3.502594e+02 1.423814e+01 2.453478e+02 
1.060000e+02 4.761815e+00 5.000000e+00 3.552594e+02 1.430389e+01 2.596193e+02 
1.070000e+02 4.771815e+00 5.000000e+00 3.602594e+02 1.436929e+01 2.739563e+02 
1.080000e+02 4.781815e+00 5.000000e+00 3.652594e+02 1.443433e+01 2.883586e+02 
1.090000e+02 4.791815e+00 5.000000e+00 3.702594e+02 1.449903e+01 3.028257e+02 
1.100000e+02 4.801815e+00 5.000000e+00 3.752594e+02 1.456339e+01 3.173573e+02 
1.110000e+02 4.811815e+00 5.000000e+00 3.802594e+02 1.462741e+01 3.319532e+02 
1.120000e+02 4.821815e+00 5.000000e+00 3.852594e+02 1.469109e+01 3.466128e+02 
1.130000e+02 4.831815e+00 5.000000e+00 3.902594e+02 1.475445e+01 3.613360e+02 
1.140000e+02 4.841815e+00 5.000000e+00 3.952594e+02 1.481748e+01 3.761224e+02 
1.150000e+02 4.851815e+00 5.000000e+00 4.002594e+02 1.488018e+01 3.909717e+02 
1.160000e+02 4.861815e+00 5.000000e+00 4.052594e+02 1.494256e+01 4.058834e+02 
1.170000e+02 4.871815e+00 5.000000e+00 4.102594e+02 1.500463e+01 4.208575e+02 
1.180000e+02 4.881815e+00 5.000000e+00 4.152594e+02 1.506639e+01 4.358934e+02 
1.190000e+02 4.891815e+00 5.000000e+00 4.202594e+02 1.512783e+01 4.509909e+02 
1.200000e+02 4.901815e+00 5.000000e+00 4.252594e+02 1.518897e+01 4.661497e+02 
1.210000e+02 4.911815e+00 5.000000e+00 4.302594e+02 1.524981e+01 4.813695e+02 
1.220000e+02 4.921815e+00 5.000000e+00 4.352594e+02 1.531035e+01 4.966500e+02 
1.230000e+02 4.931815e+00 5.000000e+00 4.402594e+02 1.537059e+01 5.119909e+02 
1.240000e+02 4.941815e+00 5.000000e+00 4.452594e+02 1.543053e+01 5.273918e+02 
1.250000e+02 4.951815e+00 5.000000e+00 4.502594e+02 1.549019e+01 5.428526e+02 
1.260000e+02 4.961815e+00 5.000000e+00 4.552594e+02 1.554956e+01 5.583729e+02 
1.270000e+02 4.971815e+00 5.000000e+00 4.602594e+02 1.560864e+01 5.739523e+02 
1.280000e+02 4.981815e+00 5.000000e+00 4.652594e+02 1.566744e+01 5.895908e+02 
1.290000e+02 4.991815e+00 5.000000e+00 4.702594e+02 1.572596e+01 6.052879e+02 
1.300000e+02 5.001815e+00 5.000000e+00 4.752594e+02 1.578421e+01 6.210433e+02 
1.310000e+02 5.011815e+00 5.000000e+00 4.802594e+02 1.584217e+01 6.368569e+02 
1.320000e+02 5.021815e+00 5.000000e+00 4.852594e+02 1.589987e+01 6.527283e+02 
1.330000e+02 5.031815e+00 5.000000e+00 4.902594e+02 1.595730e+01 6.686573e+02 
1.340000e+02 5.041815e+00 5.000000e+00 4.952594e+02 1.601446e+01 6.846436e+02 
1.350000e+02 5.051815e+00 5.000000e+00 5.002594e+02 1.607136e+01 7.006868e+02 
1.360000e+02 5.061815e+00 5.000000e+00 5.052594e+02 1.612799e+01 7.167869e+02 
1.370000e+02 5.071815e+00 5.000000e+00 5.102594e+02 1.618437e+01 7.329434e+02 
1.380000e+02 5.081815e+00 5.000000e+00 5.152594e+02 1.624048e+01 7.491562e+02 
1.390000e+02 5.091815e+00 5.000000e+00 5.202594e+02 1.629634e+01 7.654250e+02 
1.400000e+02 5.101815e+00 5.000000e+00 5.252594e+02 1.635195e+01 7.817495e+02 
1.410000e+02 5.111815e+00 5.000000e+00 5.302594e+02 1.640731e+01 7.981295e+02 
1.420000e+02 5.121815e+00 5.000000e+00 5.352594e+02 1.646242e+01 8.145648e+02 
1.430000e+02 5.131815e+00 5.000000e+00 5.402594e+02 1.651728e+01 8.310550e+02 
1.440000e+02 5.141815e+00 5.000000e+00 5.452594e+02 1.657189e+01 8.475999e+02 
1.450000e+02 5.151815e+00 5.000000e+00 5.502594e+02 1.662627e+01 8.641994e+02 
1.460000e+02 5.161815e+00 5.000000e+00 5.552594e+02 1.668040e+01 8.808531e+02 
1.470000e+02 5.171815e+00 5.000000e+00 5.602594e+02 1.673429e+01 8.975608e+02 
1.480000e+02 5.181815e+00 5.000000e+00 5.652594e+02 1.678794e+01 9.143222e+02 
1.490000e+02 5.191815e+00 5.000000e+00 5.702594e+02 1.684136e+01 9.311372e+02 
1.500000e+02 5.201815e+00 5.000000e+00 5.752594e+02 1.689455e+01 9.480056e+02 
1.510000e+02 5.211815e+00 5.000000e+00 5.802594e+02 1.694750e+01 9.649269e+02 
1.520000e+02 5.221815e+00 5.000000e+00 5.852594e+02 1.700023e+01 9.819011e+02 
1.530000e+02 5.231815e+00 5.000000e+00 5.902594e+02 1.705272e+01 9.989280e+02 
1.540000e+02 5.241815e+00 5.000000e+00 5.952594e+02 1.710499e+01 1.016007e+03 
1.550000e+02 5.251815e+00 5.000000e+00 6.002594e+02 1.715703e+01 1.033139e+03 
1.560000e+02 5.261815e+00 5.000000e+00 6.052594e+02 1.720885e+01 1.050322e+03 
1.570000e+02 5.271815e+00 5.000000e+00 6.102594e+02 1.726045e+01 1.067557e+03 
1.580000e+02 5.281815e+00 5.000000e+00 6.152594e+02 1.731182e+01 1.084843e+03 
1.590000e+02 5.291815e+00 5.000000e+00 6.202594e+02 1.736298e+01 1.102181e+03 
1.600000e+02 5.301815e+00 5.000000e+00 6.252594e+02 1.741392e+01 1.119570e+03 
1.610000e+02 5.311815e+00 5.000000e+00 6.302594e+02 1.746465e+01 1.137009e+03 
1.620000e+02 5.321815e+00 5.000000e+00 6.352594e+02 1.751516e+01 1.154500e+03 
1.630000e+02 5.331815e+00 5.000000e+00 6.402594e+02 1.756545e+01 1.172040e+03 
1.640000e+02 5.341815e+00 5.000000e+00 6.452594e+02 1.761554e+01 1.189631e+03 
1.650000e+02 5.351815e+00 5.000000e+00 6.502594e+02 1.766542e+01 1.207272e+03 
1.660000e+02 5.361815e+00 5.000000e+00 6.552594e+02 1.771508e+01 1.224963e+03 
1.670000e+02 5.371815e+00 5.000000e+00 6.602594e+02 1.776454e+01 1.242703e+03 
1.680000e+02 5.381815e+00 5.000000e+00 6.652594e+02 1.781379e+01 1.260492e+03 
1.690000e+02 5.391815e+00 5.000000e+00 6.702594e+02 1.786284e+01 1.278331e+03 
1.700000e+02 5.401815e+00 5.000000e+00 6.752594e+02 1.791168e+01 1.296218e+03 
1.710000e+02 5.411815e+00 5.000000e+00 6.802594e+02 1.796033e+01 1.314155e+03 
1.720000e+02 5.421815e+00 5.000000e+00 6.852594e+02 1.800877e+01 1.332140e+03 
1.730000e+02 5.431815e+00 5.000000e+00 6.902594e+02 1.805701e+01 1.350173e+03 
1.740000e+02 5.441815e+00 5.000000e+00 6.952594e+02 1.810505e+01 1.368254e+03 
1.750000e+02 5.451815e+00 5.000000e+00 7.002594e+02 1.815289e+01 1.386383e+03 
1.760000e+02 5.461815e+00 5.000000e+00 7.052594e+02 1.820054e+01 1.404560e+03 
1.770000e+02 5.471815e+00 5.000000e+00 7.102594e+02 1.824799e+01 1.422785e+03 
1.780000e+02 5.481815e+00 5.000000e+00 7.152594e+02 1.829525e+01 1.441057e+03 
1.790000e+02 5.491815e+00 5.000000e+00 7.202594e+02 1.834232e+01 1.459376e+03 
1.800000e+02 5.501815e+00 5.000000e+00 7.252594e+02 1.838919e+01 1.477742e+03 
1.810000e+02 5.511815e+00 5.000000e+00 7.302594e+02 1.843587e+01 1.496155e+03 
1.820000e+02 5.521815e+00 5.000000e+00 7.352594e+02 1.848236e+01 1.514614e+03 
1.830000e+02 5.531815e+00 5.000000e+00 7.402594e+02 1.852867e+01 1.533120e+03 
1.840000e+02 5.541815e+00 5.000000e+00 7.452594e+02 1.857478e+01 1.551672e+03 
1.850000e+02 5.551815e+00 5.000000e+00 7.502594e+02 1.862071e+01 1.570270e+03 
1.860000e+02 5.561815e+00 5.000000e+00 7.552594e+02 1.866645e+01 1.588914e+03 
1.870000e+02 5.571815e+00 5.000000e+00 7.602594e+02 1.871201e+01 1.607604e+03 
1.880000e+02 5.581815e+00 5.000000e+00 7.652594e+02 1.875738e+01 1.626339e+03 
1.890000e+02 5.591815e+00 5.000000e+00 7.702594e+02 1.880258e+01 1.645119e+03 
1.900000e+02 5.601815e+00 5.000000e+00 7.752594e+02 1.884758e+01 1.663944e+03 
1.910000e+02 5.611815e+00 5.000000e+00 7.802594e+02 1.889241e+01 1.682815e+03 
1.920000e+02 5.621815e+00 5.000000e+00 7.852594e+02 1.893706e+01 1.701730e+03 
1.930000e+02 5.631815e+00 5.000000e+00 7.902594e+02 1.898153e+01 1.720689e+03 
1.940000e+02 5.641815e+00 5.000000e+00 7.952594e+02 1.902582e+01 1.739693e+03 
1.950000e+02 5.651815e+00 5.000000e+00 8.002594e+02 1.906993e+01 1.758741e+03 
1.960000e+02 5.661815e+00 5.000000e+00 8.052594e+02 1.911386e+01 1.777834e+03 
1.970000e+02 5.671815e+00 5.000000e+00 8.102594e+02 1.915762e+01 1.796970e+03 
1.980000e+02 5.681815e+00 5.000000e+00 8.152594e+02 1.920121e+01 1.816149e+03 
1.990000e+02 5.691815e+00 5.000000e+00 8.202594e+02 1.924462e+01 1.835372e+03 
2.000000e+02 5.701815e+00 5.000000e+00 8.252594e+02 1.928785e+01 1.854639e+03 
2.010000e+02 5.728792e+00 5.024655e+00 8.303226e+02 1.938882e+01 1.874156e+03 
2.020000e+02 5.750073e+00 5.049535e+00 8.353354e+02 1.953453e+01 1.893525e+03 
2.030000e+02 5.773025e+00 5.074417e+00 8.403732e+02 1.967892e+01 1.913038e+03 
2.040000e+02 5.798223e+00 5.099606e+00 8.454986e+02 1.982512e+01 1.932940e+03 
2.050000e+02 5.827171e+00 5.124488e+00 8.505865e+02 1.996977e+01 1.952743e+03 
2.060000e+02 5.864309e+00 5.149676e+00 8.557619e+02 2.011767e+01 1.972937e+03 
2.070000e+02 5.907418e+00 5.174559e+00 8.608997e+02 2.026486e+01 1.993033e+03 
2.080000e+02 5.955819e+00 5.199443e+00 8.660625e+02 2.041261e+01 2.013277e+03 
2.090000e+02 6.009757e+00 5.224628e+00 8.713130e+02 2.056261e+01 2.033916e+03 
2.100000e+02 6.068938e+00 5.249513e+00 8.765258e+02 2.071126e+01 2.054458e+03 
2.110000e+02 6.133968e+00 5.274695e+00 8.818262e+02 2.086223e+01 2.075396e+03 
2.120000e+02 6.204433e+00 5.299581e+00 8.870890e+02 2.101212e+01 2.096237e+03 
2.130000e+02 6.280472e+00 5.324468e+00 8.923768e+02 2.116249e+01 2.117229e+03 
2.140000e+02 6.361893e+00 5.349648e+00 8.977523e+02 2.131599e+01 2.138621e+03 
2.150000e+02 6.447569e+00 5.374536e+00 9.030901e+02 2.146832e+01 2.159917e+03 
2.160000e+02 6.539031e+00 5.396736e+00 9.084529e+02 2.161946e+01 2.181364e+03 
2.170000e+02 6.652411e+00 5.409139e+00 9.139012e+02 2.169193e+01 2.203226e+03 
2.180000e+02 6.762510e+00 5.433979e+00 9.193008e+02 2.186599e+01 2.224931e+03 
2.190000e+02 6.883720e+00 5.442447e+00 9.247226e+02 2.187620e+01 2.246799e+03 
2.200000e+02 6.992743e+00 5.454458e+00 9.301567e+02 2.200454e+01 2.268779e+03 
2.210000e+02 7.080626e+00 5.479550e+00 9.356661e+02 2.228098e+01 2.291118e+03 
2.220000e+02 7.155296e+00 5.488912e+00 9.411337e+02 2.241971e+01 2.313379e+03 
2.230000e+02 7.241047e+00 5.513768e+00 9.466223e+02 2.251367e+01 2.335768e+03 
2.240000e+02 7.318058e+00 5.538857e+00 9.521872e+02 2.268579e+01 2.358521e+03 
2.250000e+02 7.385833e+00 5.556604e+00 9.577144e+02 2.286062e+01 2.381180e+03 
2.260000e+02 7.457168e+00 5.564315e+00 9.632651e+02 2.293033e+01 2.404031e+03 
2.270000e+02 7.542715e+00 5.589234e+00 9.688270e+02 2.305204e+01 2.426929e+03 
2.280000e+02 7.613837e+00 5.614394e+00 9.744677e+02 2.319184e+01 2.450220e+03 
2.290000e+02 7.670078e+00 5.639274e+00 9.800706e+02 2.339067e+01 2.473423e+03 
2.300000e+02 7.738282e+00 5.649197e+00 9.856982e+02 2.339694e+01 2.496802e+03 
2.310000e+02 7.813018e+00 5.673635e+00 9.914046e+02 2.363443e+01 2.520516e+03 
2.320000e+02 7.890530e+00 5.688550e+00 9.970667e+02 2.365842e+01 2.544125e+03 
2.330000e+02 7.957135e+00 5.707454e+00 1.002746e+03 2.389524e+01 2.567857e+03 
2.340000e+02 8.034775e+00 5.719895e+00 1.008509e+03 2.390939e+01 2.592010e+03 
2.350000e+02 8.112632e+00 5.736104e+00 1.014223e+03 2.412091e+01 2.615972e+03 
2.360000e+02 8.186059e+00 5.761370e+00 1.019956e+03 2.429792e+01 2.640096e+03 
2.370000e+02 8.260533e+00 5.782138e+00 1.025706e+03 2.437490e+01 2.664333e+03 
2.380000e+02 8.327240e+00 5.782359e+00 1.031541e+03 2.458573e+01 2.689007e+03 
2.390000e+02 8.425459e+00 5.807956e+00 1.037329e+03 2.458099e+01 2.713490e+03 
2.400000e+02 8.497344e+00 5.833472e+00 1.043126e+03 2.474912e+01 2.738075e+03 
2.410000e+02 8.577406e+00 5.829957e+00 1.048948e+03 2.468397e+01 2.762873e+03 
2.420000e+02 8.670188e+00 5.855871e+00 1.054778e+03 2.496560e+01 2.787663e+03 
2.430000e+02 8.740684e+00 5.871106e+00 1.060686e+03 2.511905e+01 2.812875e+03 
2.440000e+02 8.820059e+00 5.897147e+00 1.066557e+03 2.523042e+01 2.837981e+03 
2.450000e+02 8.908446e+00 5.899478e+00 1.072443e+03 2.522294e+01 2.863223e+03 
2.460000e+02 9.001075e+00 5.911452e+00 1.078338e+03 2.539950e+01 2.888512e+03 
2.470000e+02 9.094015e+00 5.931692e+00 1.084246e+03 2.551100e+01 2.913888e+03 
2.480000e+02 9.182595e+00 5.942467e+00 1.090232e+03 2.553744e+01 2.939676e+03 
2.490000e+02 9.265203e+00 5.962470e+00 1.096169e+03 2.572906e+01 2.965277e+03 
2.500000e+02 9.349424e+00 5.974189e+00 1.102124e+03 2.583738e+01 2.991017e+03 
2.510000e+02 9.449414e+00 5.974873e+00 1.108094e+03 2.588825e+01 3.016863e+03 
2.520000e+02 9.568977e+00 5.980800e+00 1.114073e+03 2.588758e+01 3.042769e+03 
2.530000e+02 9.664503e+00 6.000815e+00 1.120051e+03 2.606349e+01 3.068704e+03 
2.540000e+02 9.748207e+00 6.008546e+00 1.126047e+03 2.619189e+01 3.094773e+03 
2.550000e+02 9.853490e+00 6.021878e+00 1.132061e+03 2.621378e+01 3.120952e+03 
2.560000e+02 9.953622e+00 6.036787e+00 1.138145e+03 2.631577e+01 3.147456e+03 
2.570000e+02 1.005219e+01 6.051644e+00 1.144181e+03 2.641203e+01 3.173783e+03 
2.580000e+02 1.015082e+01 6.066890e+00 1.150232e+03 2.650689e+01 3.200205e+03 
2.590000e+02 1.025086e+01 6.081889e+00 1.156298e+03 2.659872e+01 3.226721e+03 
2.600000e+02 1.035267e+01 6.096756e+00 1.162379e+03 2.668838e+01 3.253331e+03 
2.610000e+02 1.045664e+01 6.111472e+00 1.168476e+03 2.677428e+01 3.280031e+03 
2.620000e+02 1.056286e+01 6.125507e+00 1.174588e+03 2.685717e+01 3.306818e+03 
2.630000e+02 1.067155e+01 6.139735e+00 1.180715e+03 2.693610e+01 3.333689e+03 
2.640000e+02 1.078340e+01 6.153214e+00 1.186920e+03 2.701159e+01 3.360921e+03 
2.650000e+02 1.089878e+01 6.167040e+00 1.193075e+03 2.708026e+01 3.387947e+03 
2.660000e+02 1.101898e+01 6.179797e+00 1.199245e+03 2.714194e+01 3.415042e+03 
2.670000e+02 1.279347e+01 6.674446e+00 1.205845e+03 9.779644e+00 3.438622e+03 
2.680000e+02 2.071885e+01 6.698415e+00 1.212368e+03 -1.940005e+00 3.440912e+03 
2.690000e+02 3.181321e+01 6.723069e+00 1.219043e+03 -4.259670e+00 3.437571e+03 
2.700000e+02 4.389852e+01 6.748528e+00 1.225964e+03 -5.184567e+00 3.432621e+03 
2.710000e+02 5.598532e+01 6.772029e+00 1.232366e+03 -5.184394e+00 3.427636e+03 
2.720000e+02 6.691032e+01 6.797962e+00 1.239409e+03 -3.828530e+00 3.422866e+03 
2.730000e+02 7.560605e+01 6.821891e+00 1.245979e+03 -1.486379e+00 3.420329e+03 
2.740000e+02 8.195929e+01 6.847898e+00 1.253113e+03 8.867386e-01 3.420171e+03 
2.750000e+02 8.673862e+01 6.871669e+00 1.259643e+03 2.290685e+00 3.421784e+03 
2.760000e+02 9.053066e+01 6.896572e+00 1.266474e+03 3.270827e+00 3.424607e+03 
2.770000e+02 9.360320e+01 6.922145e+00 1.273520e+03 4.007592e+00 3.428363e+03 
2.780000e+02 9.614156e+01 6.947379e+00 1.280577e+03 4.540937e+00 3.432746e+03 
2.790000e+02 9.829542e+01 6.972456e+00 1.287568e+03 4.923515e+00 3.437523e+03 
2.800000e+02 1.001696e+02 6.997322e+00 1.294512e+03 5.203587e+00 3.442575e+03 
2.810000e+02 1.018457e+02 7.022219e+00 1.301494e+03 5.412283e+00 3.447872e+03 
2.820000e+02 1.033297e+02 7.047328e+00 1.308563e+03 5.654916e+00 3.453430e+03 
2.830000e+02 1.045224e+02 7.072475e+00 1.315670e+03 5.995476e+00 3.459302e+03 
2.840000e+02 1.054153e+02 7.097632e+00 1.322804e+03 6.293132e+00 3.465510e+03 
2.850000e+02 1.061399e+02 7.122821e+00 1.329973e+03 6.440325e+00 3.471946e+03 
2.860000e+02 1.068342e+02 7.148002e+00 1.337169e+03 6.461701e+00 3.478460e+03 
2.870000e+02 1.075800e+02 7.171617e+00 1.343951e+03 6.424871e+00 3.484563e+03 
2.880000e+02 1.084063e+02 7.197301e+00 1.351348e+03 6.366917e+00 3.491146e+03 
2.890000e+02 1.093122e+02 7.222797e+00 1.358713e+03 6.314858e+00 3.497618e+03 
2.900000e+02 1.102799e+02 7.245908e+00 1.365404e+03 6.285366e+00 3.503441e+03 
2.910000e+02 1.112856e+02 7.270983e+00 1.372687e+03 6.280541e+00 3.509742e+03 
2.920000e+02 1.123077e+02 7.296027e+00 1.379985e+03 6.290858e+00 3.516040e+03 
2.930000e+02 1.133448e+02 7.321058e+00 1.387305e+03 6.298875e+00 3.522344e+03 
2.940000e+02 1.144054e+02 7.346089e+00 1.394649e+03 6.297617e+00 3.528652e+03 
2.950000e+02 1.154973e+02 7.371121e+00 1.402020e+03 6.289902e+00 3.534954e+03 
2.960000e+02 1.166206e+02 7.396155e+00 1.409415e+03 6.284707e+00 3.541250e+03 
2.970000e+02 1.177640e+02 7.421182e+00 1.416834e+03 6.293748e+00 3.547545e+03 
2.980000e+02 1.189052e+02 7.446198e+00 1.424274e+03 6.326545e+00 3.553859e+03 
2.990000e+02 1.200179e+02 7.471202e+00 1.431734e+03 6.385409e+00 3.560216e+03 
3.000000e+02 1.210792e+02 7.496196e+00 1.439217e+03 6.464284e+00 3.566641e+03 
3.010000e+02 1.220466e+02 7.521181e+00 1.446722e+03 6.570571e+00 3.573155e+03 
3.020000e+02 1.229130e+02 7.546132e+00 1.454240e+03 6.692250e+00 3.579777e+03 
3.030000e+02 1.236841e+02 7.571064e+00 1.461777e+03 6.808132e+00 3.586513e+03 
3.040000e+02 1.243695e+02 7.596018e+00 1.469347e+03 6.914658e+00 3.593366e+03 
3.050000e+02 1.249788e+02 7.620993e+00 1.476948e+03 7.012508e+00 3.600327e+03 
3.060000e+02 1.255196e+02 7.645986e+00 1.484580e+03 7.104034e+00 3.607387e+03 
3.070000e+02 1.259969e+02 7.670991e+00 1.492242e+03 7.191792e+00 3.614541e+03 
3.080000e+02 1.264131e+02 7.696005e+00 1.499931e+03 7.277845e+00 3.621784e+03 
3.090000e+02 1.267695e+02 7.721024e+00 1.507647e+03 7.363618e+00 3.629114e+03 
3.100000e+02 1.270657e+02 7.746045e+00 1.515389e+03 7.449987e+00 3.636531e+03 
3.110000e+02 1.273010e+02 7.771064e+00 1.523155e+03 7.537407e+00 3.644035e+03 
3.120000e+02 1.274744e+02 7.796080e+00 1.530945e+03 7.625991e+00 3.651625e+03 
3.130000e+02 1.275848e+02 7.821090e+00 1.538758e+03 7.715551e+00 3.659303e+03 
3.140000e+02 1.276314e+02 7.846094e+00 1.546594e+03 7.805602e+00 3.667069e+03 
3.150000e+02 1.276143e+02 7.871092e+00 1.554453e+03 7.895342e+00 3.674922e+03 
3.160000e+02 1.275344e+02 7.896083e+00 1.562334e+03 7.983625e+00 3.682862e+03 
3.170000e+02 1.273941e+02 7.921068e+00 1.570238e+03 8.068951e+00 3.690887e+03 
3.180000e+02 1.271975e+02 7.946049e+00 1.578166e+03 8.149527e+00 3.698993e+03 
3.190000e+02 1.269507e+02 7.971028e+00 1.586119e+03 8.223463e+00 3.707176e+03 
3.200000e+02 1.266613e+02 7.996006e+00 1.594096e+03 8.289066e+00 3.715428e+03 
3.210000e+02 1.263385e+02 8.020987e+00 1.602098e+03 8.345165e+00 3.723741e+03 
3.220000e+02 1.259922e+02 8.045970e+00 1.610127e+03 8.391331e+00 3.732106e+03 
3.230000e+02 1.256320e+02 8.070956e+00 1.618182e+03 8.427902e+00 3.740513e+03 
3.240000e+02 1.252667e+02 8.095947e+00 1.626263e+03 8.455847e+00 3.748953e+03 
3.250000e+02 1.249041e+02 8.120941e+00 1.634370e+03 8.476525e+00 3.757418e+03 
3.260000e+02 1.245502e+02 8.145937e+00 1.642504e+03 8.491438e+00 3.765902e+03 
3.270000e+02 1.242097e+02 8.170936e+00 1.650663e+03 8.502039e+00 3.774399e+03 
3.280000e+02 1.238860e+02 8.195936e+00 1.658847e+03 8.509609e+00 3.782905e+03 
3.290000e+02 1.235813e+02 8.220936e+00 1.667057e+03 8.515209e+00 3.791418e+03 
3.300000e+02 1.232970e+02 8.245937e+00 1.675291e+03 8.519675e+00 3.799936e+03 
3.310000e+02 1.230336e+02 8.270937e+00 1.683551e+03 8.523636e+00 3.808458e+03 
3.320000e+02 1.227914e+02 8.295937e+00 1.691835e+03 8.527553e+00 3.816984e+03 
3.330000e+02 1.225701e+02 8.320936e+00 1.700144e+03 8.531750e+00 3.825513e+03 
3.340000e+02 1.223692e+02 8.345934e+00 1.708478e+03 8.536451e+00 3.834047e+03 
3.350000e+02 1.221883e+02 8.370931e+00 1.716837e+03 8.541804e+00 3.842585e+03 
3.360000e+02 1.220264e+02 8.395927e+00 1.725220e+03 8.547905e+00 3.851128e+03 
3.370000e+02 1.218829e+02 8.420922e+00 1.733627e+03 8.554813e+00 3.859678e+03 
3.380000e+02 1.217569e+02 8.445917e+00 1.742060e+03 8.562562e+00 3.868235e+03 
3.390000e+02 1.216476e+02 8.470910e+00 1.750517e+03 8.571173e+00 3.876800e+03 
3.400000e+02 1.215540e+02 8.495903e+00 1.758998e+03 8.580654e+00 3.885373e+03 
3.410000e+02 1.214752e+02 8.520894e+00 1.767505e+03 8.591013e+00 3.893956e+03 
3.420000e+02 1.214105e+02 8.545885e+00 1.776036e+03 8.602250e+00 3.902550e+03 
3.430000e+02 1.213590e+02 8.570875e+00 1.784591e+03 8.614369e+00 3.911155e+03 
3.440000e+02 1.213196e+02 8.595865e+00 1.793172e+03 8.627368e+00 3.919772e+03 
3.450000e+02 1.212916e+02 8.620853e+00 1.801777e+03 8.641246e+00 3.928402e+03 
3.460000e+02 1.212741e+02 8.645841e+00 1.810406e+03 8.655997e+00 3.937047e+03 
3.470000e+02 1.212663e+02 8.672910e+00 1.819783e+03 8.672957e+00 3.946428e+03 
3.480000e+02 1.212673e+02 8.697894e+00 1.828464e+03 8.689504e+00 3.955104e+03 
3.490000e+02 1.212762e+02 8.722878e+00 1.837169e+03 8.706891e+00 3.963797e+03 
3.500000e+02 1.212923e+02 8.747862e+00 1.845899e+03 8.725101e+00 3.972507e+03 
3.510000e+02 1.213145e+02 8.772844e+00 1.854654e+03 8.744129e+00 3.981236e+03 
3.520000e+02 1.213422e+02 8.797826e+00 1.863433e+03 8.763986e+00 3.989984e+03 
3.530000e+02 1.213746e+02 8.822807e+00 1.872237e+03 8.784573e+00 3.998752e+03 
3.540000e+02 1.214109e+02 8.847787e+00 1.881066e+03 8.805819e+00 4.007540e+03 
3.550000e+02 1.214505e+02 8.872767e+00 1.889919e+03 8.827710e+00 4.016350e+03 
3.560000e+02 1.214929e+02 8.897746e+00 1.898797e+03 8.850219e+00 4.025182e+03 
3.570000e+02 1.215373e+02 8.922724e+00 1.907700e+03 8.873304e+00 4.034036e+03 
3.580000e+02 1.215832e+02 8.947702e+00 1.916628e+03 8.896920e+00 4.042914e+03 
3.590000e+02 1.216302e+02 8.972680e+00 1.925581e+03 8.921022e+00 4.051815e+03 
3.600000e+02 1.216778e+02 8.997657e+00 1.934558e+03 8.945562e+00 4.060740e+03 
3.610000e+02 1.217255e+02 9.022634e+00 1.943560e+03 8.970493e+00 4.069690e+03 
3.620000e+02 1.217730e+02 9.047611e+00 1.952587e+03 8.995771e+00 4.078665e+03 
3.630000e+02 1.218199e+02 9.072587e+00 1.961639e+03 9.021352e+00 4.087666e+03 
3.640000e+02 1.218661e+02 9.097564e+00 1.970715e+03 9.047192e+00 4.096691e+03 
3.650000e+02 1.219111e+02 9.122540e+00 1.979817e+03 9.073250e+00 4.105743e+03 
3.660000e+02 1.219550e+02 9.147516e+00 1.988943e+03 9.099490e+00 4.114821e+03 
3.670000e+02 1.219974e+02 9.172491e+00 1.998095e+03 9.125873e+00 4.123925e+03 
3.680000e+02 1.220384e+02 9.197467e+00 2.007271e+03 9.152369e+00 4.133056e+03 
3.690000e+02 1.220777e+02 9.222443e+00 2.016472e+03 9.178946e+00 4.142213e+03 
3.700000e+02 1.221153e+02 9.247418e+00 2.025698e+03 9.205576e+00 4.151396e+03 
3.710000e+02 1.221512e+02 9.272394e+00 2.034950e+03 9.232235e+00 4.160606e+03 
3.720000e+02 1.221854e+02 9.297370e+00 2.044226e+03 9.258901e+00 4.169843e+03 
3.730000e+02 1.222178e+02 9.322346e+00 2.053527e+03 9.285555e+00 4.179107e+03 
3.740000e+02 1.222486e+02 9.347322e+00 2.062853e+03 9.312181e+00 4.188397e+03 
3.750000e+02 1.222776e+02 9.372297e+00 2.072204e+03 9.338763e+00 4.197714e+03 
3.760000e+02 1.223051e+02 9.397273e+00 2.081580e+03 9.365290e+00 4.207057e+03 
3.770000e+02 1.223310e+02 9.422250e+00 2.090981e+03 9.391752e+00 4.216427e+03 
3.780000e+02 1.223555e+02 9.447226e+00 2.100407e+03 9.418142e+00 4.225823e+03 
3.790000e+02 1.223785e+02 9.472202e+00 2.109858e+03 9.444453e+00 4.235246e+03 
3.800000e+02 1.224002e+02 9.497179e+00 2.119334e+03 9.470680e+00 4.244695e+03 
3.810000e+02 1.224206e+02 9.522155e+00 2.128835e+03 9.496821e+00 4.254170e+03 
3.820000e+02 1.224400e+02 9.547132e+00 2.138361e+03 9.522873e+00 4.263671e+03 
3.830000e+02 1.224582e+02 9.572109e+00 2.147912e+03 9.548836e+00 4.273198e+03 
3.840000e+02 1.224755e+02 9.597086e+00 2.157488e+03 9.574710e+00 4.282751e+03 
3.850000e+02 1.224919e+02 9.622063e+00 2.167089e+03 9.600495e+00 4.292330e+03 
3.860000e+02 1.225075e+02 9.647040e+00 2.176715e+03 9.626195e+00 4.301935e+03 
3.870000e+02 1.225224e+02 9.672018e+00 2.186366e+03 9.651810e+00 4.311566e+03 
3.880000e+02 1.225367e+02 9.696995e+00 2.196042e+03 9.677344e+00 4.321222e+03 
3.890000e+02 1.225504e+02 9.721973e+00 2.205743e+03 9.702797e+00 4.330903e+03 
3.900000e+02 1.225637e+02 9.746950e+00 2.215469e+03 9.728175e+00 4.340610e+03 
3.910000e+02 1.225765e+02 9.771928e+00 2.225220e+03 9.753479e+00 4.350343e+03 
3.920000e+02 1.225891e+02 9.796906e+00 2.234996e+03 9.778716e+00 4.360100e+03 
3.930000e+02 1.226014e+02 9.821884e+00 2.244797e+03 9.803888e+00 4.369883e+03 
3.940000e+02 1.226134e+02 9.846862e+00 2.254623e+03 9.829001e+00 4.379691e+03 
3.950000e+02 1.226254e+02 9.871841e+00 2.264474e+03 9.854060e+00 4.389525e+03 
3.960000e+02 1.226372e+02 9.896819e+00 2.274350e+03 9.879067e+00 4.399383e+03 
3.970000e+02 1.226490e+02 9.921797e+00 2.284251e+03 9.904027e+00 4.409266e+03 
3.980000e+02 1.226608e+02 9.946776e+00 2.294177e+03 9.928944e+00 4.419174e+03 
3.990000e+02 1.226726e+02 9.971754e+00 2.304128e+03 9.953822e+00 4.429107e+03 
4.000000e+02 1.226845e+02 9.996733e+00 2.314104e+03 9.978664e+00 4.439065e+03 
4.010000e+02 1.226868e+02 1.000000e+01 2.324094e+03 1.000347e+01 4.449048e+03 
4.020000e+02 1.226643e+02 1.000000e+01 2.334085e+03 1.002825e+01 4.459056e+03 
4.030000e+02 1.226170e+02 1.000000e+01 2.344076e+03 1.005301e+01 4.469088e+03 
4.040000e+02 1.225450e+02 1.000000e+01 2.354067e+03 1.007750e+01 4.479145e+03 
4.050000e+02 1.224509e+02 1.000000e+01 2.364058e+03 1.009765e+01 4.489225e+03 
4.060000e+02 1.223441e+02 1.000000e+01 2.374053e+03 1.010675e+01 4.499323e+03 
4.070000e+02 1.222347e+02 1.000000e+01 2.384051e+03 1.010775e+01 4.509429e+03 
4.080000e+02 1.221267e+02 1.000000e+01 2.394051e+03 1.010608e+01 4.519536e+03 
4.090000e+02 1.220211e+02 1.000000e+01 2.404051e+03 1.010376e+01 4.529641e+03 
4.100000e+02 1.219183e+02 1.000000e+01 2.414052e+03 1.010122e+01 4.539745e+03 
4.110000e+02 1.218184e+02 1.000000e+01 2.424053e+03 1.009857e+01 4.549845e+03 
4.120000e+02 1.217212e+02 1.000000e+01 2.434054e+03 1.009587e+01 4.559943e+03 
4.130000e+02 1.216269e+02 1.000000e+01 2.444055e+03 1.009315e+01 4.570039e+03 
4.140000e+02 1.215354e+02 1.000000e+01 2.454056e+03 1.009041e+01 4.580131e+03 
4.150000e+02 1.214467e+02 1.000000e+01 2.464057e+03 1.008766e+01 4.590221e+03 
4.160000e+02 1.213609e+02 1.000000e+01 2.474058e+03 1.008493e+01 4.600309e+03 
4.170000e+02 1.212778e+02 1.000000e+01 2.484059e+03 1.008220e+01 4.610393e+03 
4.180000e+02 1.211975e+02 1.000000e+01 2.494060e+03 1.007948e+01 4.620475e+03 
4.190000e+02 1.211199e+02 1.000000e+01 2.504061e+03 1.007677e+01 4.630554e+03 
4.200000e+02 1.210451e+02 1.000000e+01 2.514062e+03 1.007407e+01 4.640630e+03 
4.210000e+02 1.209730e+02 1.000000e+01 2.524063e+03 1.007140e+01 4.650704e+03 
4.220000e+02 1.209035e+02 1.000000e+01 2.534064e+03 1.006873e+01 4.660775e+03 
4.230000e+02 1.208368e+02 1.000000e+01 2.544065e+03 1.006608e+01 4.670843e+03 
4.240000e+02 1.207726e+02 1.000000e+01 2.554066e+03 1.006345e+01 4.680908e+03 
4.250000e+02 1.207112e+02 1.000000e+01 2.564066e+03 1.006084e+01 4.690971e+03 
4.260000e+02 1.206523e+02 1.000000e+01 2.574067e+03 1.005825e+01 4.701032e+03 
4.270000e+02 1.205960e+02 1.000000e+01 2.584068e+03 1.005567e+01 4.711089e+03 
4.280000e+02 1.205423e+02 1.000000e+01 2.594069e+03 1.005312e+01 4.721145e+03 
4.290000e+02 1.204911e+02 1.000000e+01 2.604070e+03 1.005060e+01 4.731197e+03 
4.300000e+02 1.204424e+02 1.000000e+01 2.614071e+03 1.004810e+01 4.741247e+03 
4.310000e+02 1.203962e+02 1.000000e+01 2.624072e+03 1.004563e+01 4.751295e+03 
4.320000e+02 1.203525e+02 1.000000e+01 2.634072e+03 1.004319e+01 4.761340e+03 
4.330000e+02 1.203111e+02 1.000000e+01 2.644073e+03 1.004079e+01 4.771383e+03 
4.340000e+02 1.202722e+02 1.000000e+01 2.654074e+03 1.003844e+01 4.781423e+03 
4.350000e+02 1.202355e+02 1.000000e+01 2.664075e+03 1.003613e+01 4.791461e+03 
4.360000e+02 1.202012e+02 1.000000e+01 2.674075e+03 1.003387e+01 4.801497e+03 
4.370000e+02 1.201690e+02 1.000000e+01 2.684076e+03 1.003166e+01 4.811530e+03 
4.380000e+02 1.201390e+02 1.000000e+01 2.694077e+03 1.002952e+01 4.821561e+03 
4.390000e+02 1.201111e+02 1.000000e+01 2.704077e+03 1.002744e+01 4.831590e+03 
4.400000e+02 1.200853e+02 1.000000e+01 2.714078e+03 1.002542e+01 4.841617e+03 
4.410000e+02 1.200614e+02 1.000000e+01 2.724079e+03 1.002347e+01 4.851642e+03 
4.420000e+02 1.200394e+02 1.000000e+01 2.734079e+03 1.002159e+01 4.861665e+03 
4.430000e+02 1.200193e+02 1.000000e+01 2.744080e+03 1.001979e+01 4.871686e+03 
4.440000e+02 1.200008e+02 1.000000e+01 2.754080e+03 1.001806e+01 4.881706e+03 
4.450000e+02 1.199841e+02 1.000000e+01 2.764081e+03 1.001640e+01 4.891724e+03 
4.460000e+02 1.199689e+02 1.000000e+01 2.774082e+03 1.001483e+01 4.901740e+03 
4.470000e+02 1.199553e+02 1.000000e+01 2.784082e+03 1.001333e+01 4.911754e+03 
4.480000e+02 1.199431e+02 1.000000e+01 2.794082e+03 1.001190e+01 4.921767e+03 
4.490000e+02 1.199323e+02 1.000000e+01 2.804083e+03 1.001055e+01 4.931779e+03 
4.500000e+02 1.199228e+02 1.000000e+01 2.814083e+03 1.000928e+01 4.941789e+03 
4.510000e+02 1.199144e+02 1.000000e+01 2.824084e+03 1.000808e+01 4.951798e+03 
4.520000e+02 1.199073e+02 1.000000e+01 2.834084e+03 1.000696e+01 4.961806e+03 
4.530000e+02 1.199011e+02 1.000000e+01 2.844084e+03 1.000591e+01 4.971812e+03 
4.540000e+02 1.198960e+02 1.000000e+01 2.854085e+03 1.000492e+01 4.981818e+03 
4.550000e+02 1.198919e+02 1.000000e+01 2.864085e+03 1.000401e+01 4.991823e+03 
4.560000e+02 1.198885e+02 1.000000e+01 2.874085e+03 1.000316e+01 5.001827e+03 
4.570000e+02 1.198860e+02 1.000000e+01 2.884085e+03 1.000237e+01 5.011830e+03 
4.580000e+02 1.198842e+02 1.000000e+01 2.894086e+03 1.000164e+01 5.021832e+03 
4.590000e+02 1.198831e+02 1.000000e+01 2.904086e+03 1.000098e+01 5.031833e+03 
4.600000e+02 1.198827e+02 1.000000e+01 2.914086e+03 1.000037e+01 5.041834e+03 
4.610000e+02 1.198828e+02 1.000000e+01 2.924086e+03 9.999810e+00 5.051834e+03 
4.620000e+02 1.198834e+02 1.000000e+01 2.934086e+03 9.999304e+00 5.061834e+03 
4.630000e+02 1.198844e+02 1.000000e+01 2.944087e+03 9.998848e+00 5.071833e+03 
4.640000e+02 1.198859e+02 1.000000e+01 2.954087e+03 9.998438e+00 5.081832e+03 
4.650000e+02 1.198878e+02 1.000000e+01 2.964087e+03 9.998072e+00 5.091831e+03 
4.660000e+02 1.198900e+02 1.000000e+01 2.974087e+03 9.997748e+00 5.101829e+03 
4.670000e+02 1.198925e+02 1.000000e+01 2.984087e+03 9.997463e+00 5.111826e+03 
4.680000e+02 1.198953e+02 1.000000e+01 2.994087e+03 9.997216e+00 5.121824e+03 
4.690000e+02 1.198982e+02 1.000000e+01 3.004087e+03 9.997003e+00 5.131821e+03 
4.700000e+02 1.199014e+02 1.000000e+01 3.014087e+03 9.996822e+00 5.141818e+03 
4.710000e+02 1.199047e+02 1.000000e+01 3.024087e+03 9.996672e+00 5.151815e+03 
4.720000e+02 1.199081e+02 1.000000e+01 3.034087e+03 9.996551e+00 5.161811e+03 
4.730000e+02 1.199117e+02 1.000000e+01 3.044087e+03 9.996456e+00 5.171808e+03 
4.740000e+02 1.199153e+02 1.000000e+01 3.054087e+03 9.996385e+00 5.181804e+03 
4.750000e+02 1.199190e+02 1.000000e+01 3.064087e+03 9.996337e+00 5.191801e+03 
4.760000e+02 1.199227e+02 1.000000e+01 3.074088e+03 9.996309e+00 5.201797e+03 
4.770000e+02 1.199264e+02 1.000000e+01 3.084088e+03 9.996301e+00 5.211793e+03 
4.780000e+02 1.199301e+02 1.000000e+01 3.094088e+03 9.996310e+00 5.221790e+03 
4.790000e+02 1.199338e+02 1.000000e+01 3.104088e+03 9.996334e+00 5.231786e+03 
4.800000e+02 1.199374e+02 1.000000e+01 3.114088e+03 9.996373e+00 5.241782e+03 
4.810000e+02 1.199410e+02 1.000000e+01 3.124088e+03 9.996424e+00 5.251779e+03 
4.820000e+02 1.199445e+02 1.000000e+01 3.134088e+03 9.996487e+00 5.261775e+03 
4.830000e+02 1.199480e+02 1.000000e+01 3.144088e+03 9.996560e+00 5.271772e+03 
4.840000e+02 1.199514e+02 1.000000e+01 3.154088e+03 9.996642e+00 5.281769e+03 
4.850000e+02 1.199547e+02 1.000000e+01 3.164088e+03 9.996732e+00 5.291765e+03 
4.860000e+02 1.199579e+02 1.000000e+01 3.174088e+03 9.996828e+00 5.301762e+03 
4.870000e+02 1.199610e+02 1.000000e+01 3.184088e+03 9.996930e+00 5.311759e+03 
4.880000e+02 1.199640e+02 1.000000e+01 3.194088e+03 9.997036e+00 5.321756e+03 
4.890000e+02 1.199669e+02 1.000000e+01 3.204088e+03 9.997146e+00 5.331754e+03 
4.900000e+02 1.199696e+02 1.000000e+01 3.214089e+03 9.997259e+00 5.341751e+03 
4.910000e+02 1.199723e+02 1.000000e+01 3.224089e+03 9.997374e+00 5.351748e+03 
4.920000e+02 1.199748e+02 1.000000e+01 3.234089e+03 9.997491e+00 5.361746e+03 
4.930000e+02 1.199772e+02 1.000000e+01 3.244089e+03 9.997608e+00 5.371743e+03 
4.940000e+02 1.199795e+02 1.000000e+01 3.254089e+03 9.997726e+00 5.381741e+03 
4.950000e+02 1.199817e+02 1.000000e+01 3.264089e+03 9.997843e+00 5.391739e+03 
4.960000e+02 1.199838e+02 1.000000e+01 3.274089e+03 9.997959e+00 5.401737e+03 
4.970000e+02 1.199857e+02 1.000000e+01 3.284089e+03 9.998074e+00 5.411735e+03 
4.980000e+02 1.199876e+02 1.000000e+01 3.294089e+03 9.998187e+00 5.421733e+03 
4.990000e+02 1.199893e+02 1.000000e+01 3.304089e+03 9.998298e+00 5.431732e+03 
5.000000e+02 1.199909e+02 1.000000e+01 3.314089e+03 9.998406e+00 5.441730e+03 
5.010000e+02 1.199924e+02 1.000000e+01 3.324089e+03 9.998512e+00 5.451729e+03 
5.020000e+02 1.199939e+02 1.000000e+01 3.334089e+03 9.998615e+00 5.461727e+03 
5.030000e+02 1.199952e+02 1.000000e+01 3.344090e+03 9.998715e+00 5.471726e+03 
5.040000e+02 1.199964e+02 1.000000e+01 3.354090e+03 9.998812e+00 5.481725e+03 
5.050000e+02 1.199975e+02 1.000000e+01 3.364090e+03 9.998905e+00 5.491724e+03 
5.060000e+02 1.199985e+02 1.000000e+01 3.374090e+03 9.998995e+00 5.501723e+03 
5.070000e+02 1.199994e+02 1.000000e+01 3.384090e+03 9.999081e+00 5.511722e+03 
5.080000e+02 1.200003e+02 1.000000e+01 3.394090e+03 9.999163e+00 5.521721e+03 
5.090000e+02 1.200011e+02 1.000000e+01 3.404090e+03 9.999242e+00 5.531720e+03 
5.100000e+02 1.200018e+02 1.000000e+01 3.414090e+03 9.999317e+00 5.541720e+03 
5.110000e+02 1.200024e+02 1.000000e+01 3.424090e+03 9.999388e+00 5.551719e+03 
5.120000e+02 1.200030e+02 1.000000e+01 3.434090e+03 9.999455e+00 5.561718e+03 
5.130000e+02 1.200035e+02 1.000000e+01 3.444090e+03 9.999519e+00 5.571718e+03 
5.140000e+02 1.200039e+02 1.000000e+01 3.454090e+03 9.999579e+00 5.581717e+03 
5.150000e+02 1.200043e+02 1.000000e+01 3.464090e+03 9.999636e+00 5.591717e+03 
5.160000e+02 1.200046e+02 1.000000e+01 3.474090e+03 9.999688e+00 5.601717e+03 
5.170000e+02 1.200049e+02 1.000000e+01 3.484090e+03 9.999738e+00 5.611717e+03 
5.180000e+02 1.200051e+02 1.000000e+01 3.494090e+03 9.999784e+00 5.621716e+03 
5.190000e+02 1.200053e+02 1.000000e+01 3.504090e+03 9.999827e+00 5.631716e+03 
5.200000e+02 1.200054e+02 1.000000e+01 3.514090e+03 9.999867e+00 5.641716e+03 
5.210000e+02 1.200055e+02 1.000000e+01 3.524090e+03 9.999904e+00 5.651716e+03 
5.220000e+02 1.200056e+02 1.000000e+01 3.534090e+03 9.999937e+00 5.661716e+03 
5.230000e+02 1.200056e+02 1.000000e+01 3.544090e+03 9.999968e+00 5.671716e+03 
5.240000e+02 1.200056e+02 1.000000e+01 3.554090e+03 9.999997e+00 5.681716e+03 
5.250000e+02 1.200056e+02 1.000000e+01 3.564090e+03 1.000002e+01 5.691716e+03 
5.260000e+02 1.200056e+02 1.000000e+01 3.574090e+03 1.000005e+01 5.701716e+03 
5.270000e+02 1.200055e+02 1.000000e+01 3.584090e+03 1.000007e+01 5.711716e+03 
5.280000e+02 1.200054e+02 1.000000e+01 3.594090e+03 1.000009e+01 5.721716e+03 
5.290000e+02 1.200053e+02 1.000000e+01 3.604090e+03 1.000010e+01 5.731716e+03 
5.300000e+02 1.200052e+02 1.000000e+01 3.614090e+03 1.000012e+01 5.741716e+03 
5.310000e+02 1.200051e+02 1.000000e+01 3.624090e+03 1.000013e+01 5.751716e+03 
5.320000e+02 1.200049e+02 1.000000e+01 3.634090e+03 1.000014e+01 5.761716e+03 
5.330000e+02 1.200048e+02 1.000000e+01 3.644090e+03 1.000015e+01 5.771717e+03 
5.340000e+02 1.200046e+02 1.000000e+01 3.654090e+03 1.000016e+01 5.781717e+03 
5.350000e+02 1.200045e+02 1.000000e+01 3.664090e+03 1.000016e+01 5.791717e+03 
5.360000e+02 1.200043e+02 1.000000e+01 3.674090e+03 1.000017e+01 5.801717e+03 
5.370000e+02 1.200041e+02 1.000000e+01 3.684090e+03 1.000017e+01 5.811717e+03 
5.380000e+02 1.200039e+02 1.000000e+01 3.694090e+03 1.000018e+01 5.821717e+03 
5.390000e+02 1.200038e+02 1.000000e+01 3.704090e+03 1.000018e+01 5.831717e+03 
5.400000e+02 1.200036e+02 1.000000e+01 3.714090e+03 1.000018e+01 5.841718e+03 
5.410000e+02 1.200034e+02 1.000000e+01 3.724090e+03 1.000018e+01 5.851718e+03 
5.420000e+02 1.200032e+02 1.000000e+01 3.734090e+03 1.000018e+01 5.861718e+03 
5.430000e+02 1.200031e+02 1.000000e+01 3.744090e+03 1.000018e+01 5.871718e+03 
5.440000e+02 1.200029e+02 1.000000e+01 3.754090e+03 1.000017e+01 5.881718e+03 
5.450000e+02 1.200027e+02 1.000000e+01 3.764090e+03 1.000017e+01 5.891719e+03 
5.460000e+02 1.200025e+02 1.000000e+01 3.774090e+03 1.000017e+01 5.901719e+03 
5.470000e+02 1.200024e+02 1.000000e+01 3.784090e+03 1.000016e+01 5.911719e+03 
5.480000e+02 1.200022e+02 1.000000e+01 3.794090e+03 1.000016e+01 5.921719e+03 
5.490000e+02 1.200021e+02 1.000000e+01 3.804090e+03 1.000015e+01 5.931719e+03 
5.500000e+02 1.200019e+02 1.000000e+01 3.814090e+03 1.000015e+01 5.941719e+03 
5.510000e+02 1.200018e+02 1.000000e+01 3.824090e+03 1.000014e+01 5.951720e+03 
5.520000e+02 1.200016e+02 1.000000e+01 3.834090e+03 1.000014e+01 5.961720e+03 
5.530000e+02 1.200015e+02 1.000000e+01 3.844090e+03 1.000013e+01 5.971720e+03 
5.540000e+02 1.200014e+02 1.000000e+01 3.854090e+03 1.000013e+01 5.981720e+03 
5.550000e+02 1.200012e+02 1.000000e+01 3.864090e+03 1.000012e+01 5.991720e+03 
5.560000e+02 1.200011e+02 1.000000e+01 3.874090e+03 1.000012e+01 6.001720e+03 
5.570000e+02 1.200010e+02 1.000000e+01 3.884090e+03 1.000011e+01 6.011720e+03 
5.580000e+02 1.200009e+02 1.000000e+01 3.894090e+03 1.000011e+01 6.021720e+03 
5.590000e+02 1.200008e+02 1.000000e+01 3.904090e+03 1.000010e+01 6.031720e+03 
5.600000e+02 1.200007e+02 1.000000e+01 3.914090e+03 1.000009e+01 6.041721e+03 
5.610000e+02 1.200006e+02 1.000000e+01 3.924090e+03 1.000009e+01 6.051721e+03 
5.620000e+02 1.200005e+02 1.000000e+01 3.934090e+03 1.000008e+01 6.061721e+03 
5.630000e+02 1.200005e+02 1.000000e+01 3.944090e+03 1.000008e+01 6.071721e+03 
5.640000e+02 1.200004e+02 1.000000e+01 3.954090e+03 1.000007e+01 6.081721e+03 
5.650000e+02 1.200003e+02 1.000000e+01 3.964090e+03 1.000007e+01 6.091721e+03 
5.660000e+02 1.200003e+02 1.000000e+01 3.974090e+03 1.000006e+01 6.101721e+03 
5.670000e+02 1.200002e+02 1.000000e+01 3.984090e+03 1.000006e+01 6.111721e+03 
5.680000e+02 1.200001e+02 1.000000e+01 3.994090e+03 1.000005e+01 6.121721e+03 
5.690000e+02 1.200001e+02 1.000000e+01 4.004090e+03 1.000005e+01 6.131721e+03 
5.700000e+02 1.200000e+02 1.000000e+01 4.014090e+03 1.000005e+01 6.141721e+03 
5.710000e+02 1.200000e+02 1.000000e+01 4.024090e+03 1.000004e+01 6.151721e+03 
5.720000e+02 1.200000e+02 1.000000e+01 4.034090e+03 1.000004e+01 6.161721e+03 
5.730000e+02 1.199999e+02 1.000000e+01 4.044090e+03 1.000003e+01 6.171721e+03 
5.740000e+02 1.199999e+02 1.000000e+01 4.054090e+03 1.000003e+01 6.181721e+03 
5.750000e+02 1.199999e+02 1.000000e+01 4.064090e+03 1.000003e+01 6.191721e+03 
5.760000e+02 1.199998e+02 1.000000e+01 4.074090e+03 1.000002e+01 6.201722e+03 
5.770000e+02 1.199998e+02 1.000000e+01 4.084090e+03 1.000002e+01 6.211722e+03 
5.780000e+02 1.199998e+02 1.000000e+01 4.094090e+03 1.000002e+01 6.221722e+03 
5.790000e+02 1.199998e+02 1.000000e+01 4.104090e+03 1.000002e+01 6.231722e+03 
5.800000e+02 1.199998e+02 1.000000e+01 4.114090e+03 1.000001e+01 6.241722e+03 
5.810000e+02 1.199998e+02 1.000000e+01 4.124090e+03 1.000001e+01 6.251722e+03 
5.820000e+02 1.199998e+02 1.000000e+01 4.134090e+03 1.000001e+01 6.261722e+03 
5.830000e+02 1.199997e+02 1.000000e+01 4.144090e+03 1.000001e+01 6.271722e+03 
5.840000e+02 1.199997e+02 1.000000e+01 4.154090e+03 1.000001e+01 6.281722e+03 
5.850000e+02 1.199997e+02 1.000000e+01 4.164090e+03 1.000000e+01 6.291722e+03 
5.860000e+02 1.199997e+02 1.000000e+01 4.174090e+03 1.000000e+01 6.301722e+03 
5.870000e+02 1.199997e+02 1.000000e+01 4.184090e+03 1.000000e+01 6.311722e+03 
5.880000e+02 1.199997e+02 1.000000e+01 4.194090e+03 9.999999e+00 6.321722e+03 
5.890000e+02 1.199997e+02 1.000000e+01 4.204090e+03 9.999998e+00 6.331722e+03 
5.900000e+02 1.199997e+02 1.000000e+01 4.214090e+03 9.999997e+00 6.341722e+03 
5.910000e+02 1.199997e+02 1.000000e+01 4.224090e+03 9.999996e+00 6.351722e+03 
5.920000e+02 1.199997e+02 1.000000e+01 4.234090e+03 9.999995e+00 6.361722e+03 
5.930000e+02 1.199997e+02 1.000000e+01 4.244090e+03 9.999995e+00 6.371722e+03 
5.940000e+02 1.199998e+02 1.000000e+01 4.254090e+03 9.999994e+00 6.381722e+03 
5.950000e+02 1.199998e+02 1.000000e+01 4.264090e+03 9.999993e+00 6.391722e+03 
5.960000e+02 1.199998e+02 1.000000e+01 4.274090e+03 9.999993e+00 6.401722e+03 
5.970000e+02 1.199998e+02 1.000000e+01 4.284090e+03 9.999993e+00 6.411722e+03 
5.980000e+02 1.199998e+02 1.000000e+01 4.294090e+03 9.999992e+00 6.421722e+03 
5.990000e+02 1.199998e+02 1.000000e+01 4.304090e+03 9.999992e+00 6.431722e+03 
6.000000e+02 1.199998e+02 1.000000e+01 4.314090e+03 9.999992e+00 6.441722e+03 
